X:1
T:Yesterday
C:Beatles
Z:Hammerzaine
M:4/4
L:1/4
K:C
G/F/ F3 | z A/B/ ^c/d/e/f/ | e2/d/ d2 | z d/d/ c/B/A/G/
_B A/A2/ G | F A/G2/ D | F A/A2/ | [G2A2] [E2A2] |[Ad] [Ge] [F2f] e/d/
[E2e2] d2 c d | [F4A4] | [G2A2] [E2A2] | [Ad] [Ge] [F2f] e/d/ | [E2e2] d c e
[F2f] c _B A | G/F/ F3 | z A B ^c/d/e/f/ | e2/d d3 | z d/d/ c/B/A/G/
_B A/A2 G | F A/G2 D | F A/A2/ | F A G D | F A/A2
