X:1
T:Achy Breaky Heart by Billy Ray Cyrus
Z:Crescendo of Gladden
M:4/4
L:1/8
Q:1/4=130
K:A
cc cB A2 zE|cA cc AE z2|cA cc c2 A/2B3/2|B2 z4 zB|
BG BB GF zE|BB BB G2 zB|BA BA cc BA|Ac z6|
cc cB A2 zE|cA cc A/2F/2E z2|cA cc cE AB|B2 z4 zB|
BG BB G2 zE|BB BB G2 zB|BA BA cc BA|Ac z6|
c2 cB A2 zE|cA cc AE zE|c2 c2 AE AB|B2 z4 zB|
BB BB G2 zB|BG Bc GE zB|B2 BA cc BA|A2 zc4-c-|
c4- c3/2z2z/2|
cc cB A2 zE|cA cc AE z2|cA cc cA AB|B2 z4 zB|
BG BB GF zE|BB BB G2 zB|BA BA cc BA|Ac z4 zc|
cc cB A2 zE|cA cc A/2F/2E zE|cA cc cE AB|B2 z4 zB|
BG BB G2 zE|BB BB G2 zB|BA BA cc BA|Ac z4 zE|
c2 cB A2 zE|cA cc AE zE|c2 c2 AE AB|B2 z4 zB|
BB BB G2 zB|BG Bc GE zB|B2 BA cc BA|A2 zc4-c-|
c4- c3/2z2z/2|
c2 cB A2 zE|cA cc AE zE|c2 c2 AE AB|B2 z4 zB|
BB BB G2 zB|BG Bc GE zB|B2 BA cc BA|A2 z6|
c2 cB A2 zE|cA cc AE zE|c2 c2 AE AB|B2 z4 zB|
BB BB G2 zB|BG Bc AE zB|B2 BA cc BA|A2 zc4-c-|
c6 Ae-|e2
