X:1
T:Chrono Trigger - Robot's Theme
Z:Rokmai
M:4/4
L:1/8
Q:1/4=117
K:A
d3/2d3/2e e3e|e3/2e3/2f f2 e2|d3/2d3/2e e2 dc/2A/2-|A8|
d3/2d3/2e e3e|e3/2e3/2a f2 e2|d3/2d3/2e e2 A2|B8|
d4 A4|c4 e4|d4 A4|c4 e4|
d4 A4|c4 e4|f4-|f4|
d3/2d3/2e e3e|e3/2e3/2f f2 e2|d3/2d3/2e e2 dc/2A/2-|A8|
d3/2d3/2e e3e|e3/2e3/2a f2 e2|d3/2d3/2e e2 A2|B8|
d4 A4|c4 e4|d4 A4|c4 e4|
d4 A4|c4 e4|f4-|f4|