X:1
T:Oh Danny Boy
N:Findeladan Durinsbane
M:4/4
L:1/8
Q:1/4=54
K:Eb
z2 D2 E2 F2|G3F G3/2c/2 BG|FE C3E G3/2A/2|B3c B3/2G/2 EG|
F4 zD E3/2F/2|G3F G3/2c/2 BG|FE C3D E3/2F/2|G3A G3/2F/2 EF|
E4 zB c3/2d/2|e3d d3/2c/2 Bc|BG E3B c3/2d/2|e3d d3/2c/2 BG|
F4 zB B3/2B/2|g3f f3/2e/2 ce|BG E3D E3/2F/2|Gc BG FE CD|
E4- ED EF|Gc BG F3E|c4 d4|e8|