X:1
T:dannyboy [Maxsayo, forums]
L:1/4
Q:108
K:C
z2 G2 ^G2 ^A2 [c2C4^D3^G^G,4] [^G3z] c [^A^D] [c3/2C2^D2^G^G,2]
[^Gz/2] f/2 [^dc^D2^G^G,2] [c^G] [^A^C4F^G^C,4] [^GF] [F2^G2z] ^G,
[^C2F^G^C,2] [^GF] [c3/2^D2^G=C] [=G^A,z/2] ^c/2 [^d3^D3G4=c2^G,4z]
^G [c2z] [f^D] [^d3/2C2^D2^GF,2] [^Gz/2] c/2 [^G^C2F2^C,2c] [c^G]
[^A3^CF2^D,4^A,] ^C [^D2^G2F] [^A2z] [^A,4^D4=G^D,2] [G2z]
[^G3/2F,^A] [=G,=Gz/2] ^A/2 [c2=C4^D3^G^G,4] [^G3z] c [^A^D]
[c3/2C2^D2^G^G,2] [^Gz/2] f/2 [^dc^D2^G^G,2] [c^G] [^A^GF^C4^C,4]
[^GF] [F2^G2z] ^G, [^G2F2^C^C,4] [=G^C] [^G2F2z] [^Cz/2] ^A/2
[c4^D2=G4^G,=C] [^G,3z] [^D2z] [^cC] [=c2G2^D^D,2] [^Dz/2] ^A/2
[^G^C2^A=G2^D^D,2] [^A^D] [^G4c4^D2^G,4z] =C [^D2z] C [c2^D^G2^G,2]
[^d^D] [f3/2=G2^D^c2^C2^A] [^Dz/2] g/2 [^g3^D^G2=c4=C3] [^D3z] [^G2z]
[=gC] [g3/2F^c2^G2^C4] [Fz/2] f/2 [^d=G] [f^G^c] [^d^D^G2=c=C3]
[c3^D3z] [^G2z] C [^D2^Gc2C2] [^d^G] [f3/2F2^G^c^C2] [^d/2=G^A]
[g/2^c/2] [^g3^D^G2=c4=C3] [^D3z] [^G2z] [=gC] [g3/2F^c2^G2^C2]
[Fz/2] f/2 [^d^D2=c=G2=C2] [c^G] [^A3^CF2^A,4] ^C [^C2F2^G2z] ^A
[=G^D2^C2^D,2] [^dG] [^dG2^A2^c2^D,] [^C,^d/2] ^d/2 [c'3^D2^G=c2=C,4]
^G [^D2=G2c2z] [^a^d] [^a3/2^G^D2^c2^C,2F] [^Gz/2] ^g/2
[fF2^G2^c2F,2] [^gf] [^d^D2^G=c^D,4] [c^G] [^Gc2^d2] ^G
[F^G2^c3F,2^C] [=GF3] [^G2^d^D,2=G] [^c^A/2] ^A/2 [=c2^D2^G^G,4]
[f^G] [^dF2^Gc] [c^G] [^A^D2^G^c2^C,2^C] [^GF] [F2^G2^c^D,2] [=G^c]
[^G2=c4^D^G,4=C] [^D2z] [^G2z] ^D [^D^G2c4C] [^D2=G] [^G2z] [^Dz/2]
^A/2 [c2C4^D3^G^G,4] [^G3z] [c7/8z3/4] ^A/8 [c9/8z/8] [^D^A]
[c2C2^D2^G^G,2] [^Gf] [c3/2^D2^G^G,2^d3/2] [^Gz/2] c/2
[^c4^C4F^G^C,4^A] [F^G] [^G2F2z] ^G, [^c2^C2F^G^C,2] [F^G]
[^d^D2^G=C=c3/2] [^c/2=G^A,] ^c/2 [=c2^D3G4^G,4^d3z] ^G [c2z]
[^Df7/8z3/4] ^d/8 f/8 [c3/2C2^D2^GF,2^d3/2] [^Gz/2] c/2
[f2^C2F2^G^C,2c] [^Gc] [f4^CF2^A3^D,4^A,] ^C [^D2^G2F] ^A
[^d4^A,4^D4=G^D,2] [G2z] [F,^A^G3/2] [=G,=Gz/2] ^A/2 [c2=C4^D3^G^G,4]
[^G3z] [c7/8z3/4] ^A/8 [c9/8z/8] [^D^A] [c2C2^D2^G^G,2] [^Gz/2] f/2
[^d2c^D2^G^G,2] [^Gc] [^c4^GF^C4^C,4^A] [F^G] [^G2F2z] ^G,
[^c4^G2F2^C^C,4] [^C=G] [^G2F2z] [^Cz/2] ^A/2 [=c15/4^D2=G4^G,=C]
[^G,3z] [^D2z] [C^c7/8z3/4] [=c/4z/8] ^c/8 [^d2G2=c2^D^D,2] [^Dz/2]
^A/2 [^c2^C2^AG2^D^D,2] [^D^A] [=c4^D2^G4^G,4z] =C [^D2z] C
[c2^D^G2^G,2] [^d^D] [^c2=G2^D^C2^Af3/2] [^A^Dz/2] =g/2
[=c4^D^G2=C3^g3] [^D3z] [^G2z] [C=g3/4] [g/4z/8] ^g/8
[^c3F^G2^C4=g3/2] [Fz/2] f/2 [=G^d3/2] [^G^cz/2] f/2 [=c^D^G2=C3^d]
[^D3c3z] [^G2z] C [c2^D2^GC2] [^d^G] [^cF2^G^C2f3/2] [^A^d/2=G]
[^c/2g/2] [=c4^D^G2=C3^g3] [^D3z] [^G2z] [C=g3/4] [g/4z/8] ^g/8
[f3/2F^c2^G2^C2=g3/2] [Fz/2] f/2 [^g2^D2=c=G2=C2^d] [^Gc]
[^a4^C^A3F2^A,4] ^C [^C2F2^G2z] ^A [^a4=G^D2^C2^D,2z3/4] ^d/8 f/8
[G^d] [G2^A2^c2^D,^d] [^C,^d/2] ^d/2 [c'31/8^D2^G=c2=C,4] ^G
[^D2=G2c2z] [^d^a3/4] [^a/4z/8] c'/8 [^c2^G^D2^C,2F^a3/2] [^Gz/2]
^g/2 [F2^G2^c2F,2f] [f^g] [c'2^D2^G=c^D,4^d] [^Gc] [c'^Gc2^d2] [^a^G]
[^g2F^G7/8^c3F,2^C] =G/8 [^G9/8z/8] [F3=G] [^g^d^D,2G^G2] [f^c^A/2]
^A/2 [^d7/4^D2=c2^G^G,4] [^Gf7/8z3/4] [^d/4z/8] f/8
[^g2F2^Gc3/2^d3/2] [^Gz/2] c/2 [^a2^D2^G^c2^C,2^C] [F^G]
[^cF2^G2^D,2] [^c=G] [c'8^G2=c8^D^G,4=C] [^D2z] [^G2z] [^D5z]
[F^G7/8^c3F,2^Cz3/4] =G/8 [^G9/8z/8] [F3=G] [^d^D,2G^G2] [^c^A]
[^d7/4^D2=c2^G^G,4] [^Gf7/8z3/4] [^d/4z/8] f/8 [^g2F2^Gc^d] [^Gc]
[^a4F^G2^c4^C,4^C] [F2z] ^G [F^G] [^c4F^G4^C,4^A,f4] [F2z] ^A F
[^d4=G4^A2^D,4^A,=g4] ^D [^A2z] ^D [c'14^d8=c8^G4^G,^g8] [^G,4z] =C
^D [^G4z] [^G,3z] C ^D [^G6c8^d6^G,6^g6]