X:1
T:Town Music
C:Dragon Warrior
G:Game Theme
Z:Oleandra Fields of Silverlode
M:4/4
L:1/8
Q:1/4=115
K:F
z6 AB|cf ed c2 dA|B4 z2 GA|Be dc cB GB|
A2 B2 c2 de|fB/2B/2 Bd f2 ed|cA/2A/2 Ac f2 cB|A2 FA G2 f2|
ef de c2 de|fB/2B/2 Bd f2 ed|cA/2A/2 Ac f2 cB|AB =Bd c_B AG|
Az Gz F
