X:1
T:The Drunken Tinker
G: Reel
Z:Oleandra Fields of Silverlode
M:4/4
L:1/8
K:Am
EAAG EGDG|EA A2 fAeA|EAAG EDEF|1 G2BG =cGBG EAAG EGDG|EA A2 fAeA|EAAG EDEF|1 G2BG =cGBG GABd dBGB|
A2eA fAeA|fAeA dBGB|A2eA fAeA|d2BG DGBG|A2eA fAeA|fAeA dBGB| e3f g3e|d2BG DGBG
