X:1
T:Cats in the Craddle
Z:Crescendo of Gladden
M:4/4
L:1/8
Q:1/4=76
K:Db
EB BE/2B/2 c/2B/2A/2E/2 A3/2E/2|F2E2F2 DF E2-|E2 e/2d/2B/2=A/2 _AG E2|DF E4 EB|
B3/2A/2 A/2B/2B z2 AA/2G/2|AA/2A/2 B/2E/2E3/2E/2E/2D/2 EB/2B/2-|B3/2B/2 A/2B/2B3/2z2z/2A/2G/2|AG/2A/2 B/2E/2E2F/2E/2 F/2E/2F/2E/2|
F3/2E/2 F/2E/2D3/2D/2D/2z3/2D/2E/2|F/2E/2D Ez2z/2D/2 D/2D/2D/2E/2|F/2E/2D E6|ze/2e/2 ee/2e/2 ee/2e/2 fe/2d/2-|
dz d/2d/2d d/2B/2d/2ee/2e-|e/2z3/2 e/2e/2e/2e/2 ee/2e/2 fe|dz3/2d/2d/2e/2 f/2d/2e3|z3/2d/2 dd/2e/2 f/2e/2d e2-|
e2 EB BE/2B/2 c/2B/2A/2E/2|A3/2E/2 F2E2F2 DF|E3E/2E/2 BB BB/2A/2|A/2B/2B z3/2G/2 AA/2G/2 AG/2A/2|
B/2E/2E3/2E/2E/2E/2 E/2E/2B BA/2G/2|A/2G/2B2A/2G/2 AG/2AG/2A|BE E3/2zF/2F/2E/2 F3/2E/2|FE DD3/2D/2D/2E/2 F/2E/2D|
Ez3 z/2D/2D/2E/2 F/2E/2D|E4- E3/2z3/2e/2e/2|ee/2e/2 ee/2e/2 fe/2d3/2z|d/2d/2d d/2B/2d/2ee/2e3/2z3/2|
e/2e/2e/2e/2 ee/2e/2 fe dz|z/2d/2d/2e/2 f/2d/2e3 z3/2d/2|dd/2e/2 f/2e/2d e4|EB BE/2B/2 c/2B/2A/2E/2 A3/2E/2|
F2E2F2 DF E2-|E4- EE EE/2B/2-|B/2B/2B/2A/2 A/2B/2B zG AA/2A/2-|A/2G/2A B/2E/2E3/2z3/2 EE/2B/2-|
BA/2G/2 A/2BB2G/2 A/2G/2A-|A/2G/2A B/2EE2E/2 F/2E/2F/2E/2|F3/2E/2 F/2E/2D/2DF3/2 DD/2E/2|F/2E/2D EE E3-E/2z/2|
ze/2e/2 ee/2e/2 ee/2e/2 fe/2d/2-|dz d/2d/2d d/2B/2d/2ee/2e-|e/2z3/2 e/2e/2e/2e/2 ee/2e/2 fe|dz3/2d/2d/2e/2 f/2d/2e3|
z3/2d/2 dd/2e/2 f/2e/2d e2-|e8-|e2 z3E B/2B/2B-|BA B/2B/2B z3/2G/2 A/2G/2A|
G/2A/2B/2E/2 E4- E/2z3/2|EE EB3/2A/2A/2B/2 Bz|z/2G/2A/2G/2 A/2G/2A G/2A/2B/2E/2 E2-|E2- E/2zD/2 E/2D/2F/2FE/2F|
F/2E/2F/2E/2 D/2D2D/2D D/2E/2F/2E/2|DE B,/2B,2D/2D D/2E/2F/2E/2|DE4-E3/2z3/2|zF/2FE/2F F/2E/2F E/2D3/2-|
D/2D/2D DF/2DE2-E/2z|z/2D/2D3/2D/2F/2DE3-E/2-|E3z e/2d/2e e/2e/2e|e/2e/2f e/2d3/2 zd/2d/2 dd/2B/2|
d/2ee/2 e3/2z3/2e/2e/2 e/2e/2e|e/2e/2f ed z3/2d/2 d/2e/2f/2d/2|e3z3/2d/2d d/2e/2f/2e/2|de4z3|
e/2e/2e e/2e/2e e/2e/2f e/2d3/2|zd/2d/2 dd/2B/2 d/2ee/2 e3/2z/2|ze/2e/2 e/2e/2e e/2e/2f ed|z3/2d/2 d/2e/2f/2d/2 e3z|
z/2d/2d d/2e/2f/2e/2 de3-|ez4E B/2E/2B-|B/2E/2c/2B/2 A/2E/2A3/2B,/2F B,/2EF/2-|F/2B,/2D/2B,/2 FE4-E|