X:1
T:Going to California
C:Led Zepplin
N:Asphyx of Brandywine
I:Lute
M:4/4
L:1/8
Q:1/4=220
K:C
D,dDdD,dD|
D,dDdD,dD|
D,dDdD,dD|
D,dDdD,dD|
D,dDdD,dD|
D,dDdD,dD|
D,d^fDadD,gdaDfa|
eD,addDadeD,da^fDf|
G,GGG^FG,EGDF|
G,EEGGEDG,EG|
GG,DBGGG^FAG,FEGEAF|
G,AGG^FAG,ED,D|
^fD,adDaedD,fadDa|
dD,dadDadD,AdBDd|
^fD,dDfdaeD,adeDa|
D,edaDddaD,AdBdD|
G,GG^FG,EGDF|
G,EEGEGDG,EG|
GDBG,GG^FABG,BEGBFBA|
G,GAG^FAG,ED,D|
D,^fadDaedD,fadDa|
D,ddaDddaD,AdBDd|
D,^fdDfdaeD,deaDa|
eD,daDdadD,ABddD|
G,G^FG,EGDF|
G,EEGGEDG,EG|
G,DBGGGG^FAG,EFGEFA|
G,GAG^FAG,ED,D|
D,^fadDdeaD,dfaDa|
dD,adDddaD,ABdDd|
D,^fdDfdaeD,deaDa|
D,eaddDadAD,dBDd|
fD,fDfededD|
B,dfeDdcedcded|
D,dd^fBDB|
D,ADdBdDA|
fefDdcedd|
B,dfeGdegdfdeDdce|
D,d^fdaADB|
D,AADB^cdD,dD|
D,daDddeD,adDe|
D,daDddeD,adDe|
G,GGB^FG,EBGBDB|
G,DGDGBDG,EG|
G,DGDGGGGAG,BEBBG^FAB|
G,GGAG^FA^FG,EED,DD|
D,^fedDdeaD,daDa|
D,ddaDddaD,ABdDd|
D,^fdDfdeaD,deaDa|
D,edaDddaD,A^fBdDd|
G,GGB^FG,EBBGDD|
G,EGDGBDG,EG|
G,DGBGGGG^FAG,BEBGFA|
G,GGAG^FA^FG,EAED,DDA|
D,e^ffdDfdeD,daDdD,|
D,^fdaDdaD,ABddDd^f|
D,e^fdDedeaD,deaeDd|
D,daDdaD,d^fdefDe|
G,GG^FGG,BEFBBGD|
G,DEDGDDBG,DEGD|
G,BDGGGGG,ABDE^FBGAD|
G,GAGDAG,DEAD,|
D,^fdDfdeD,dDd|
D,ABdDdd^faD,dabDa|
D,dd^fDfdeD,dadDd|
D,ddeD^fdaD,ABddDa|
A,fagdafeaDagfdfa|
A,agdfeaDagfdfa|
A,fgdfeaDfgfdfa|
A,fgdaggDcfdb|
GaB^cgdacaaca|
A,e^cdaA,aca|
A,ga^cdA,aace|
A,g^cfdD,ca|
D,fagdffagD,gfdfa|
D,fgdfgaD,ada|
D,aagdfaaD,agfdaa|
D,afdaaD,ad|
A,de^cdaA,c|
A,d^cdaA,acf|
A,dg^cdA,ac_b|
A,da^cdaA,faeca|
D,de^fDdaD,aDg|
D,d^faDedaD,daDA|
D,BdD^cdeD,daeDa|
D,d^faDddaD,eaDf|
G,GG^FG,GD|
G,EGDG,BBGD|
G,GG^FAG,GDA|
G,GAG^FAG,DAEGDA|
D,d^fDdeaD,eeDd|
D,daDedaD,ABDd|
D,dgbaDed^faD,eDd|
D,deDedD,deD^f|
G,GG^FG,GD|
G,EGDG,BBGD|
G,GGG^FAG,GDEA|
G,GAEGE^FAG,DAEGDA|
D,d^fDAdeaD,eeDd|
D,daDedaD,ABDd|
D,dgbaDed^faD,eDd|
D,deDedD,deD^f|
G,GGG^FG,BBGDB|
G,DEDGDDBG,BBGD|
G,GG^FABG,FABDGFAD|
G,^FGAGFAG,FDEGDF|
D,d^feDeddefD,deDd|
D,AdBDddeaD,dbDda|
D,dg^fDdD,eedDa|
A,dcdcacadca|
DGGfedcdGde|
D,feAddgfdedAc|
D,dD^fdadAB|
fdcffaca|
B,GGegdfdeGdec|
D,ddeadgedaA^fa|
D,dd^cadaD,^faD|
D,dd^cddD,ddDd|
D,ddaD^fdeD,afAe|
D,daD^fdeD,afDe|
D,deDeeaaDe|
D,de^cDedeD,aDda|
D,daDdeD,aDde|
D,daDddeD,daDdde|
D,daDddaD,deD^fdd|
D,deDdaD,eDdd|
D,ddaD^fdeD,afAe|
D,daD^fdeD,afDe|
D,deDeeaaDe|
D,de^cDedeD,aDda|
D,daDdeD,aDde|
D,daDddeD,daDdde|
D,daDddaD,deD^fdd|
D,deDdaD,eDdd|
