X:2
T:The Trees
C:Rush
Z:celestial
I:theorbo or lute
N:This is only the bass line from the song
Q:1/4=140
M:3/4
L:1/8
K:D
D6 |F6 |C6 |A,6 |E6 |G, B, D A,3 |B, z B, A, z D |B,6 |D d c d/2 c/2 A B |F G F E D B, |C ^G c4 |A, B, C z D z |E B e2 B D |G, B, D A,3 |B, C D E G A |B6 |D6 |A,6 |B,6 |B,6 |F, F, F, F, F, F, F, F, |F, F, F, F, F, F, F, E, |G, G, G, G, G, G, G, G, |G, G, G, G, G, G, G, E, |A,2 z A,2 A, F, A, |B,2 z B,2 C D E |G2 z F2 F/2 G F D |E2 z D z C D E |A,2 z A,-A,/2 A,/2 A, F, A, |B,2 A, B,2 C D E |G D G F2 A A B |A2 z G2 F E D |A,2 z A,2 A G/2 G/2 E |B,2 z B,2 C D E |G E G E2 G F D |E2 E2 G2/3F2/3E2/3 D2/3C2/3B,2/3 |F,3 G F E F2 |C2 F F, F2 E,/2 F,/2 |G,2 D G2 A2 G2 |F2 E2D E C |A,3 A, A, A, A, A, |A3 A, A, A, A, A, |A A A G G G |F F F E E E |D2 D D A G |F2 F G F E |C z C D C B, A, A, C C D E |
E,2 E, E D B, |G, B, D A, A, A, |B, C D E F A |B2 F B, B/2 B/2 A |D d c d A B |F G F E D B, |C ^G c ^G C C |A, B, C D E F |E, E B e B E |G, B, D A, C E |B, C D E F/2 F/2 A |B c d e f e |d c/2 d/2 B A F D |E D B, A, |B,8 |B,8 |A,2 z A, z A, z A, F, G, |B,2 z B, z B, z B, F, G, |A,2 z A, z A, z A, F, G, |D2 z D z D z D F, G, |A,2 z A, z A, z A, F, G, |B, B, z B, z B, z B, F, G, |A, A, z A, z A, z A, F, G, |D D z D z D z D F, G, |A,2 z A, z A, A, A, F, G, |B,2 z B, z B, B, B, F, G, |A,2 z A, z A, A, A, F, G, |D2 z D z D D D F, G, |A,2 z A, z A, A, A, F, G, |B, B, z B, z B, z B, F, G, |A, A, z A, z A, A, A, F, G, |D D D C/2 C/2 D C D E F G A B |G G z G2 F |G G z G2 F |D D z D2 C |A, z5 |G G z G2 G/3 A |G F z G2 F |D C D E F G |A z5 |G G z G2 A |B A z G2 F |D C2 D2 E |A, z5 |G G z G2 A |
G G z G2 F |D D z D2 C |A, B, C D E F |B, B, B, A,2 D D D A, A, |B, B, B, E, z E, z E, A, A, |B, B, B, A,2 D D D A, A, |B, B, B, E, z E, z E, z E, |A,2 z A,2 A, z A, |B,2 z B,2 C D E |G2 z F2 F/3 G F D |E2 z D z C D E |A,2 z A,2 A G E |B,2 A, B,2 C D E |G E G F z A A B |A e A d A c B A |A,2 z A, z G F E |B, C D C2 B, D E |G2 z F2 G F D |E E D D C D z B, |E, E, E, E, E, F F E, |F E, E, E, E, E, E, E, |G, G, G, G, G, G G G, |G G, G, D G D G, G, |A,8 |A,8 |
