X:1
T:New Year's Day, U2 Theorbo arranged by Snowberry
C:Bono and the Edge music by U2
M:4/4
L:1/8
Q:1/4=132
K:C
^G^GB^G ^G^G^G^G|
B,B,^DB, B,B,B,B,|
^D^D^F^D ^D^D^D^G|
^D^D^F^D ^D^D^D^D|
^G^GB^G ^G^G^GA,|
B,B,^DB, B,B,B,C|
^F^F^F^F ^F^F^F^F|
^F^F^F^F ^F^F^F^F|
^D^D^D^D ^D^D^D^D|
^D^D^D^D ^D^D^D^D|
^G^G^G^G ^G^G^G^G|
^G^G^G^G ^G^G^G^G|
^F^F^F^F ^F^F^F^F|
^F^F^F^F ^F^F^F^F|
^D^D^D^D ^D^D^D^D|
^D^D^D^D ^D^D^D^D|
^G^GB^G ^G^G^GA,|
B,B,^DB, B,B,B,^D|
^D^D^F^D ^D^D^D^G|
^D^D^F^D ^D^D^D^G|
%VERSE
^G^GB^G ^G^G^GB,|
B,B,^DB, B,B,B,C|
^D^D^F^D ^D^D^D^G|
^D^D^F^D ^D^D^D^F|
^G^GB^G ^G^G^GB,|
B,B,^DB, B,B,B,B,|
^D^D^F^D ^D^D^D^G|
^D^D^F^D ^D^D^D^F|
^G^GB^G ^G^G^GB,|
B,B,^DB, B,B,B,C|
^D^D^F^D ^D^D^D^G|
^D^D^F^D ^D^D^D^F|
^G^GB^G ^G^G^GB,|
B,B,^DB, B,B,B,C|
^D^D^F^D ^D^D^D^G|
^D^D^F^D ^D^D^D^F|
^G^GB^G ^G^G^GB,|
B,B,^DB, B,B,B,C|
^D^D^F^D ^D^D^D^F|
^D^D^F^D ^D^D^D^D|
%CHORUS
^F^F^F^F ^F^F^F^F|
^F^F^F^F ^F^F^F^F|
^G^G^G^G ^G^G^G^G|
^G^G^G^G ^G^G^G^G|
^F^F^F^F ^F^F^F^F|
^F^F^F^F ^F^F^F^F|
EEEE EEEE|
EEEE EEEE|
%VERSE
^G^GB^G ^G^G^GB,|
B,B,^DB, B,B,B,C|
^D^D^F^D ^D^D^D^G|
^D^D^F^D ^D^D^D^F|
^G^GB^G ^G^G^GB,|
B,B,^DB, B,B,B,B,|
^D^D^F^D ^D^D^D^G|
^D^D^F^D ^D^D^D^F|
^G^GB^G ^G^G^GB,|
B,B,^DB, B,B,B,C|
^D^D^F^D ^D^D^D^G|
^D^D^F^D ^D^D^D^F|
^G^GB^G ^G^G^GB,|
B,B,^DB, B,B,B,C|
^D^D^F^D ^D^D^D^G|
^D^D^F^D ^D^D^D^F|
%CHORUS
^F^F^F^F ^F^F^F^F|
^F^F^F^F ^F^F^F^F|
^G^G^G^G ^G^G^G^G|
^G^G^G^G ^G^G^G^G|
^F^F^F^F ^F^F^F^F|
^F^F^F^F ^F^F^F^F|
EEEE EEEE|
EEEE EEEE|
%CHORUS
^F^F^F^F ^F^F^F^F|
^F^F^F^F ^F^F^F^F|
^G^G^G^G ^G^G^G^G|
^G^G^G^G ^G^G^G^G|
^F^F^F^F ^F^F^F^F|
^F^F^F^F ^F^F^F^F|
EEEE EEEE|
EEEE EEE^F|
%BRIDGE
^G^GB^G ^G^G^G^G|
B,B,^DB, B,B,B,B,|
^D^D^F^D ^D^D^D^G|
^D^D^F^D ^D^D^D^D|
^G^GB^G ^G^G^GA,|
B,B,^DB, B,B,B,C|
^F^F^F^F ^F^F^F^F|
^F^F^F^F ^F^F^F^F|
EEEE EEEE|
EEEE EEEE|
^G^G^G^G ^G^G^G^G|
^G^G^G^G ^G^G^G^G|
^F^F^F^F ^F^F^F^F|
^F^F^F^F ^F^F^F^F|
EEEE EEEE|
%VERSE
^G^GB^G ^G^G^G^G|
B,B,^DB, B,B,B,C|
^D^D^F^D ^D^D^D^G|
^D^D^F^D ^D^D^D^F|
^G^GB^G ^G^G^G^G|
B,B,^DB, B,B,B,C|
^D^D^F^D ^D^D^D^G|
^D^D^F^D ^D^D^D^F|
^G^GB^G ^G^G^G^G|
B,B,^DB, B,B,B,C|
^D^D^F^D ^D^D^D^G|
^D^D^F^D ^D^D^D^F|
^G^GB^G ^G^G^G^G|
B,B,^DB, B,B,B,C|
^D^D^F^D ^D^D^D^G|
^D^D^F^D ^D^D^D^F|
^G^GB^G ^G^G^GB,|
B,B,^DB, B,B,B,B,|
^D^D^F^D ^D^D^D^G|
^D^D^F^D ^D^D^D^F|
%CHORUS
^F^F^F^F ^F^F^F^F|
^F^F^F^F ^F^F^F^F|
^G^G^G^G ^G^G^G^G|
^G^G^G^G ^G^G^G^G|
^F^F^F^F ^F^F^F^F|
^F^F^F^F ^F^F^F^F|
EEEE EEEE|
EEEE EEE^F|
%REPEAT CHORUS
^F^F^F^F ^F^F^F^F|
^F^F^F^F ^F^F^F^F|
^G^G^G^G ^G^G^G^G|
^G^G^G^G ^G^G^G^G|
^F^F^F^F ^F^F^F^F|
^F^F^F^F ^F^F^F^F|
EEEE EEEE|
EEEE EEE^F|