X: 1
T: Nights in White Satin
Z: Crescendo
M: 6/8
L: 1/8
Q:1/4=100
K:G
z3 BAG|AA4-A|
z2B/2B/2 BA3/2G/2|A4-A3/2z/2|z3 e/2d3/2c|d/2B4-B3/2|
z2A/2A/2 AGA|G/2E4-Ez/2|z3 BAG|AA4-A|
z2B/2B/2 BA3/2G/2|A4-A3/2z/2|z3 edc|d2B4|
z2A/2A/2 AGA|G/2E3-E/2EG|AA4-A-|A3 zee/2d/2|
ed4-d|g2f2fe|e3 d3-|d6|
z6|z6|z3 BAG|AA4-A/2z/2|
z3 BAG|A4-Az|z3 edc|d/2d/2A4z|
z2A AGA|G/2E4-Ez/2|z3 BAG|AG4z|
zBB BAG|G4-Gz|z3 edc|d2B4|
z2A/2A/2 AGA|G/2E3-E/2EG|AA4-A-|A3 zee/2d/2|
ed4-d|g2f2fe|e3 d3-|d6|
z6|z6|z6|z3 BAG|
AA4-A|z2B/2B/2 BA3/2G/2|A4-A3/2z/2|z3 e/2d3/2c|
d/2B4-B3/2|z2A/2A/2 AGA|G/2E4-Ez/2|z3 BAG|
AA4-A|z2B/2B/2 BA3/2G/2|A4-A3/2z/2|z3 edc|
d2B4|z2A/2A/2 AGA|G/2E3-E/2EG|AA4-A-|
A3 zee/2d/2|ed4-d|g2f2fe|e3 d3-|
d6|z6|z6|z6|
z4EG|AA4-A-|A3 zee/2d/2|ed4-d|
g2f2fe|e3 d3-|d6|