X:1
T:Cantina End
Z:Loxias of Brandywine
M:4/4
L:1/8
Q:1/4=120
K:C
FA DF D/2FF^C/2F|^CE3/2E/2E =C3/2=A,/2 z2|^A,B,/2^C/2 ^A,3/2^g/2 =C3/2^G/2 ^F2|
=Gz B,/2^A,C/2 z4|z/2=FD/2 F/2z2FD/2 F/2z3/2|z/2FD/2 E/2FD2=A,z3/2|z/2FD/2 F/2z2FD/2 F/2z3/2|
z/2FD/2 E/2F^D2E/2 G3/2z/2|z/2F=D/2 F/2z2FD/2 F/2z3/2|z/2FD/2 E/2FD2A,/2 z2|^A,/2D/2F B,/2D/2F ^G/2AD/2 z2|
D/2F/2^A/2D/2 B,/2^A,=A,z3z/2|