X: 1
T: Tina's Theme, Final Fantasy VI
C: Nobuo Uematsu
Z: Robert Houle/Andaeron Caladithil (Firefoot)
M: 4/4
L: 1/8
Q: 1/4=80
K: C
A,/2B,/2C/2E/2 C6|B,/2A,/2B,2E,4-E,|A,/2B,/2C/2E/2 C6|B,/2A,/2B,2E4-E|C/2D/2E/2G/2 E6|D/2C/2D2G,4-G,|C/2B,/2A,6-A,|C/2B,/2A,6-A,|A/2B/2c/2e/2 c6|B/2A/2B2E4-E|A/2B/2c/2e/2 c6|B/2A/2B2e4-e|c/2d/2e/2g/2 e6|d/2c/2d2G4-G|c/2B/2A6-A|c/2B/2A6-A|C/2D/2E/2G/2 E6|D/2C/2D2G,4-G,|C/2D/2E/2G/2 E6|D/2C/2D2G4-G|A/2B/2c/2e/2 c6|B/2A/2B2E4-E|c/2B/2A6-A|c/2B/2A6-A|c4 e2 c2|A8|d4 f2 d2|B8|e4 g2 e2|c4 d2 e2|d2 A4 B2|c8|B8|A8-|A6- A3/2
