X: 1
T:Epona's summoning song from Zelda
Z: Samril/Maes
M:3/4
L:1/8
Q:1/4=60
K:A
afe4|afe4|afe2f2|
e6|c2=c2^c2|gaf4|a2a2a2|
gfe4|afe4|afe4|afe2f2|
e6|c2=c2^c2|fga4|a2a2b2|
a6|CDE4|FDA,4|
CDE2A2|F6|F2E2D2|ECA,4|
B,2B,2F2|EFG4|CDE4|FDA,4|
CDE2A2|F6|F2E2D2|EGA4|
B,2C2^D2|E6|AFE4|AFE4|afe4|afe4|
afe2f2|e6|c2=c2^c2|gaf4|
a2a2a2|gfe4|afe4|afe4|
afe2f2|e6|c2=c2^c2|fga4|
a2a2b2|a6|z6|c2=c2^c2|
fga4|a2a2b2|a6|