X: 1
T: Ranma Opening
Z:Samril/Maes
M: 4/4
L: 1/8
Q:1/4=163
K:Eb
=EG G2 =EG G2|=A=B =A2 G2 z2|
=EG G2 =EG G2|D=E DC C2 z2|=EG G2 =EG G2|=A=B =A2 G2 z2|
=EG G2 =EG G2|D=E DC C2 z2|z8|C2 C2 =E2 zD-|
D=E DC =E2 z2|zC2C =E2 =ED-|D=E DC C3/2z2z/2|C2 C2 =E2 zD-|
D=E DC =E2 z2|zC2C =E2 =E=E|zC2C =E2 =E=E|zC2C =E2 =ED-|
D=E DC C2 z2|z8|
z8|DD2C DD2C|=E2 =E2 D2 C2|DD2C DD2C|
=E2 F2 G4|DD2C DD2C|=E2 =E2 D2 C2|DD2C DD2z|
z=E/2z3/2G G4|F2 F2 G3=E-|=E=E =E=E =E4|F2 F2 G2 G2|
=E2 =A2 G2 =E2|F2 F2 G2 G=E-|=E=E =E=E =E4|F2 F2 F2 F2|
=E2 =E2 D2 _D2|=D8|z8|F2 F2 F2 F2|
=E2 G2 F2 =E2|zC DF =E2 C2|D3D C3-C/2z/2|zC DF =E2 C2|
D4 C3-C/2z/2|z8|C2 C2 =E3D-|D=E DC =E2 z2|
zC2C =E2 =ED-|D=E DC C2 z2|C2 C2 =E3D-|D=E DC =E2 z2|
zC2C =E2 =E=E|zC2C =E2 =E=E|zC2C =E2 =ED-|D=E DC C4-|
C4
