X:1
T:Sonatina in G
C:Beethoven
Z:Hoho windfola server
M:4/4
L:1/8
Q:100=1/4
K:G
G/5G,/5B,16/5 B2/5A/5F,/5C3/5G AB | G/5G,/5B,8/5 gd dB BG |
c/5D,/5A,16/5 c2/5B/5D,/5G3/5A Bc | A/5D,/5F,8/5 de dB cA | G/5G,4/5D
B,D3/5 B2/5A/5G,4/5G/5=F4/5 A/5D4/5B/5=F4/5 | c/5G,4/5E CE3/5 f2/5e/5G,4/5d/5C4/5 e/5A,4/5f/5C4/5 | g/5B,4/5d e/5C4/5c B/5D4/5d c/5D,4/5A | A/5G,9/5 D,2 G/5G,9/5 z2 |
A/5F,4/5D, F,D, c/5G,4/5B/5D,4/5 A/5G,4/5B/5D,4/5 | d/5A,4/5c ag fe dc | B/5G,4/5D, G,D, d/5A,4/5c/5D,4/5 B/5A,4/5c/5D,4/5 | e/5B,4/5d ba gf ed | c/5D,/5A,8/5 ag fe d/5D,/5F,3/5c | B/5D,/5G,8/5 gf ed c/5D,/5E,3/5B |
A/5D,/5F,8/5 DE FG AB | c2 B2c2 d2c2 A2B2 | G/5G,/5B,16/5 B2/5A/5F,/5C3/5G AB | G/5G,/5B,8/5 gd dB BG | c/5D,/5A,16/5 c2/5B/5D,/5G,3/5A Bc |
A/5D,/5F,8/5 de dB cA | G/5G,4/5D B,D3/5 B2/5A/5G,4/5G/5=F4/5
A/5D4/5B/5=F4/5 | c/5G,4/5E CE3/5 f2/5e/5G,4/5d/5C4/5 e/5A,4/5f/5C4/5| 
g/5B,4/5d e/5C4/5c B/5D4/5d c/5D,4/5A | A/5G,9/5 D,2 G/5G,9/5 z2
A/5F,4/5D, F,D, c/5G,4/5B/5D,4/5 A/5G,4/5B/5D,4/5 | d/5A,4/5c ag fe dc | B/5G,4/5D, G,D, d/5A,4/5c/5D,4/5 B/5A,4/5c/5D,4/5 | e/5B,4/5d ba gf ed | c/5D,/5A,8/5 ag fe d/5D,/5F,3/5c | B/5D,/5G,8/5 gf ed c/5D,/5E,3/5B |
A/5D,/5F,8/5 DE FG AB | c2 B2c2 d2c2 A2B2 | G/5G,/5B,16/5 B2/5A/5F,/5C3/5G AB | G/5G,/5B,8/5 gd dB BG | c/5D,/5A,16/5 c2/5B/5D,/5G,3/5A Bc |
A/5D,/5F,8/5 de dB cA | G/5G,4/5D B,D3/5 B2/5A/5G,4/5G/5=F4/5
A/5D4/5B/5=F4/5 | c/5G,4/5E CE3/5 f2/5e/5G,4/5d/5C4/5 e/5A,4/5f/5C4/5| 
g/5B,4/5d e/5C4/5c B/5D4/5d c/5D,4/5A | A/5G,9/5 D,2 G/5G,9/5 z2
d/5D,4/5A, CA, d/5D,4/5A d/5C4/5A, | d/5D,4/5G, B,G, g/5D,4/5G b/5B,4/5G, | d/5D,4/5F, A,F, d/5D,4/5F, d/5A,4/5F, | b/5D,4/5G, B,G, D,G, B,G, | d/5D,4/5A, CA, d/5D,4/5A d/5C4/5A, | d/5D,4/5G, B,G, g/5D,4/5G b/5B,4/5G, | d/5D,4/5F, A,F, f/5D,4/5A, CA, | g/5G,/5B,8/5 z2
G/5G,/5B,8/5 G/5G,/5B,8/5 | G/5G,/5B,8/5 G,2 G/5D,/5B,8/5B,2 |
G/5G,/5B38/5 |
B2 c2 d2 | G/5G,9/5 B,/5D9/5 G/5B,/5D6/5 B2/5A/5D,9/5 G/5C/5D8/5
A/5C/5D8/5 | B/5G,9/5 B,/5D9/5 G/5B,/5D8/5 B2 c2 d2 | G/5E,9/5G,/5B,9/5 G/5G,/5B,6/5 A2/5G/5E,9/5 F/5G,/5^C8/5 G/5G,/5^C8/5 |
A/5D,9/5 F,/5D9/5 F,/5D9/5 B2 =c2 d2 |
G/5G,9/5 B,2 G/5D9/5 G/5G,9/5 A/5D9/5 B/5=F9/5 | c/5C/5E18/5 e2 g2
e2 c2 | B/5D,9/5 G,2 d/5B,9/5 c/5D,9/5 A/5D,9/5 d/5C9/5 |
G/5G,/5B,18/5 z2 |
B2 c2 d2 | G/5G,9/5 B,/5D9/5 G/5B,/5D6/5 B2/5A/5D,9/5 G/5C/5D8/5
A/5C/5D8/5 | B/5G,9/5 B,/5D9/5 G/5B,/5D8/5 B2 c2 d2 | G/5E,9/5G,/5B,9/5 G/5G,/5B,6/5 A2/5G/5E,9/5 F/5G,/5^C8/5 G/5G,/5^C8/5 |
A/5D,9/5 F,/5D9/5 F,/5D9/5 B2 =c2 d2 |
G/5G,9/5 B,2 G/5D9/5 G/5G,9/5 A/5D9/5 B/5=F9/5 | c/5C/5E18/5 e2 g2
e2 c2 | B/5D,9/5 G,2 d/5B,9/5 c/5D,9/5 A/5D,9/5 d/5C9/5 |
G/5G,/5B,18/5 z8/5 |
A2/5G2 F2 G2 | A/5F,/5A,8/5 B2 ^c2 d2 e2 f2 |
a/5E,/5B,18/5 g2 f2 e2 d2 | ^c/5A,/5^C8/5 B2 A2 e2 ^c2 G2 |
F/5D,/5D18/5 A2 d/5D,9/5 d/5E,9/5 d/5F,9/5 | B/5G,9/5 A,2 G/5B,9/5
d/5D,9/5 d/5E,9/5 d/5F,9/5 | B/5G,9/5 A,2 G/5B,9/5 d/5D,9/5 d/5E,9/5
d/5F,9/5 |
B/5G,9/5 G2 E2 F/5A,9/5 G2 E2 | D/5D,19/5 z2 F2 E2 D2 |
A/5D,2/5F,2/5A,2/5C13/5 z2 A2 G2 F2 | c/5D,2/5F,2/5A,2/5C13/5 z2 c2
B2 A2 | e/5D,2/5F,2/5A,2/5C13/5 z4 d2 c2 B2 A2 |
G5/2 F5/2 E5/2 D5/2 E5/2 F5/2 | G3 A3 ^A3 B3 c3 d3 | G/5G,9/5 B,/5D9/5 G/5B,/5D6/5 B2/5A/5D,9/5 G/5C/5D8/5
A/5C/5D8/5 | B/5G,9/5 B,/5D9/5 G/5B,/5D8/5 B2 c2 d2 | G/5E,9/5G,/5B,9/5 G/5G,/5B,6/5 A2/5G/5E,9/5 F/5G,/5^C8/5 G/5G,/5^C8/5 |
A/5D,9/5 F,/5D9/5 F,/5D9/5 B2 =c2 d2 |
G/5G,9/5 B,2 G/5D9/5 G/5G,9/5 A/5D9/5 B/5=F9/5 | c/5C/5E18/5 e2 g2
e2 c2 | B/5D,9/5 G,2 d/5B,9/5 c/5D,9/5 A/5D,9/5 d/5C9/5 |
G/5G,/5B,18/5 z8/5 |
A2/5G2 F2 G2 | A/5F,/5A,8/5 B2 ^c2 d2 e2 f2 |
a/5E,/5B,18/5 g2 f2 e2 d2 | ^c/5A,/5^C8/5 B2 A2 e2 ^c2 G2 |
F/5D,/5D18/5 A2 d/5D,9/5 d/5E,9/5 d/5F,9/5 | B/5G,9/5 A,2 G/5B,9/5
d/5D,9/5 d/5E,9/5 d/5F,9/5 | B/5G,9/5 A,2 G/5B,9/5 d/5D,9/5 d/5E,9/5
d/5F,9/5 |
B/5G,9/5 G2 E2 F/5A,9/5 G2 E2 | D/5D,19/5 z2 F2 E2 D2 |
A/5D,2/5F,2/5A,2/5C13/5 z2 A2 G2 F2 | c/5D,2/5F,2/5A,2/5C13/5 z2 c2
B2 A2 | e/5D,2/5F,2/5A,2/5C13/5 z4 d2 c2 B2 A2 |
G5/2 F5/2 E5/2 D5/2 E5/2 F5/2 | G3 A3 ^A3 B3 c3 d3 | G/5G,9/5 B,/5D9/5 G/5B,/5D6/5 B2/5A/5D,9/5 G/5C/5D8/5
A/5C/5D8/5 | B/5G,9/5 B,/5D9/5 G/5B,/5D8/5 B2 c2 d2 | G/5E,9/5G,/5B,9/5 G/5G,/5B,6/5 A2/5G/5E,9/5 F/5G,/5^C8/5 G/5G,/5^C8/5 |
A/5D,9/5 F,/5D9/5 F,/5D9/5 B2 =c2 d2 |
G/5G,9/5 B,2 G/5D9/5 G/5G,9/5 A/5D9/5 B/5=F9/5 | c/5C/5E18/5 e2 g2
e2 c2 | B/5D,9/5 G,2 d/5B,9/5 c/5D,9/5 A/5D,9/5 d/5C9/5 |
G/5G,/5B,18/5 z2 |
B2 c2 d2 | A/5D,/5F,/5C13/5 A2/5B2/5A2 c3B A2 |
G/5E,/5G,/5B,17/5 G8/5 A2/5G2 F2 G2 | E/5C,9/5 F2 G2 A/5^C,/5G,8/5
B2 A2 | A/5D,/5F,18/5 D2 B2 c2 d2 | A/5D,9/5 F,2 A/5=C5/5
A2/5B2/5c/5D9/5 B/5F,9/5 A/5C9/5 | G/5E,9/5 G,2 B,2 g/5C,9/5 E,2
e/5G,9/5 |
d/5D,9/5 G,2 B/5B,9/5 A/5D,9/5 F,2 d/5C9/5 | B/5G,9/5 B,2 D2
g/5C,9/5 E,2 e/5G,9/5 | d/5D,9/5 G,2 B/5B,9/5 c/5D,9/5 A/5F,9/5
d/5C9/5 | G/5G,/5B,18/5 z2 g/5G,/5D/5B17/5 z2 | G/5G,/5D,/5B,17/5 z2|