X:1
T:Enter the Sandman by: Metallica
Z:Crescendo of Gladden
M:4/4
L:1/8
Q:1/4=369
K:D
z3E,3 E,2-|E,E,3 E,3E,-|E,2 E,3E,3|E,3E,3 E,2-|
E,E,3 E,3E,-|E,2 E,3E,3|E,3E,3 E,2-|E,E,3 E,3E,-|
E,2 E,3E,3|E,3E,3 E,2-|E,E,3 E,3E,-|E,2 E,3E,3|
E,3E,3 E,2-|E,E,3 E,3E,-|E,2 E,3E,3|=F,3E,3 E,2-|
E,E,3 E,3E,-|E,2 E,3E,3|=F,3E,3 E,2-|E,E,3 =F,3E,-|
E,2 E,3E,3|=F,3E,3 E,2-|E,E,3 =F,3E,-|E,2 E,3E,3|
=F,3E,3 E,2-|E,E,3 E,3E,-|E,2 E,3E,3|=F,3E,3 E,2-|
E,E,3 E,3E,-|E,2 E,3E,3|=F,3E,3 E,2-|E,E,3 E,3E,-|
E,2 E,3E,3|=F,3E,3 E,2-|E,E,3 A,3E-|E2 A,3E3|
=F,3E,3 E,2-|E,E,3 E,3E,-|E,2 E,3E,3|=F,3E,3 E,2-|
E,E,3 E,3E,-|E,2 E,3E,3|=F,3E,3 E,2-|E,E,3 E,3E,-|
E,2 E,3E,3|=F,3E,3 E,2-|E,E,3 E,3E,-|E,2 E,3E,3|
=F,3E,3 E,2-|E,E,3 E,3E,-|E,2 E,3E,3|=F,3E,3 E,2-|
E,E,3 E,3E,-|E,2 E,3E,3|=F,3E,3 E,2-|E,E,3 E,3E,-|
E,2 E,3E,3|=F,3E,3 E,2-|E,E,3 E,3E,-|E,2 E,3E,3|
E,6 E,2-|E,E,3 ^A,3=A,-|A,2 A,3E,3|E,6 E,2-|
E,E,3 ^A,3=A,-|A,2 A,3E,3|E,6 E,2-|E,E,3 ^A,3=A,-|
A,4- A,E,3|G,6 E,2-|E,^F,3 E,3F,-|F,2 G,3F,3|
E,6 E,2-|E,E,3 ^A,3=A,-|A,2 A,3E,3|E,6 E,2-|
E,E,3 ^A,3=A,-|A,2 A,3E,3|E,6 E,2-|E,E,3 ^A,3=A,-|
A,4- A,E,3|G,6 E,2-|E,F,3 E,3F,-|F,2 G,3F,3|
E,6 E,2-|E,E,3 E,3E,-|E,2 E,3E,3|=F,3E,3 E,2-|
E,E,3 E,3E,-|E,2 E,3E,3|=F,3E,3 E,2-|E,E,3 E,3E,-|
E,2 E,3E,3|G,3d3 E,2-|E,^F,3 E,3F,-|F,2 G,3F,3|
E,6 E,2-|E,E,3 E,3E,-|E,2 E,3E,3|=F,3E,3 E,2-|
E,E,3 E,3E,-|E,2 E,3E,3|=F,3E,3 E,2-|E,E,3 E,3E,-|
E,2 E,3E,3|G,3d3 E,2-|E,^F,3 E,3F,-|F,2 G,3E,3|
F,6 f2-|fa3 =c3B,-|B,2 f3f3|F,6 f2-|
fa3 =c3B,-|B,2 f3f3|F,6 f2-|fa3 =c3B,-|
B,2 ^g3f3|F,3F,3 F,2-|F,F,3 F,3F,-|F,2 E,3E,3|
=F,3^F,3 F,2-|F,F,3 =C3B,-|B,2 B,3B,3|F,6 F,2-|
F,F,3 =C3B,-|B,2 B,3B,3|F,3F,3 F,2-|F,F,3 =C3B,-|
B,2 B,3B,3|E,3e3 A,3/2B,/2-|B,D3 B,3E-|E2 D3B,3|
G,3F,4-F,-|F,F,3 =C3B,-|B,2 B,3B,3|E,3E,3 E,2-|
E,F,3 E,3G,-|G,2 E,3A,3|E,3/2d3/2G,3 E2-|EF3 E3F-|
F2 d3F3|E,6 E,2-|E,E,3 ^A,3=A,-|A,2 A,3E,3|
E,6 E,2-|E,E,3 ^A,3=A,-|A,2 A,3E,3|E,6 E,2-|
E,E,3 ^A,3=A,-|A,4- A,E,3|G,6 E,2-|E,F,3 E,3F,-|
F,2 G,3F,3|E,6 E,2-|E,E,3 ^A,3=A,-|A,2 A,3E,3|
E,6 E,2-|E,E,3 ^A,3=A,-|A,2 A,3E,3|E,6 E,2-|
E,E,3 ^A,3=A,-|A,4- A,E,3|G,6 E,2-|E,F,3 E,3F,-|
F,2 G,3F,3|E,6 E,2-|E,E,3 E,3E,-|E,2 E,3E,3|
=F,3E,3 E,2-|E,E,3 E,3E,-|E,2 E,3E,3|=F,3E,3 E,2-|
E,E,3 E,3E,-|E,2 E,3E,3|G,3d3 E,2-|E,^F,3 E,3F,-|
F,2 G,3F,3|E,6 E,2-|E,E,3 E,3E,-|E,2 E,3E,3|
=F,3E,3 E,2-|E,E,3 E,3E,-|E,2 ^G,3E,3|=F,3E,3 E,2-|
E,E,3 E,3E,-|E,2 E,3E,3|=G,3d3 E,2-|E,^F,3 E,3F,-|
F,2 G,3E,3|F,6 f2-|fa3 =c3B,-|B,2 f3f3|
F,6 f2-|fa3 =c3B,-|B,2 f3f3|F,6 f2-|
fa3 =c3B,-|B,2 ^g3f3|F,3F,3 F,2-|F,F,3 F,3F,-|
F,2 E,3E,3|=F,3^F,3 F,2-|F,F,3 =C3B,-|B,2 B,3B,3|
F,6 F,2-|F,F,3 =C3B,-|B,2 B,3B,3|F,3F,3 F,2-|
F,F,3 =C3B,-|B,2 B,3B,3|E,3e3 E2-|ED3 e3=C-|
=C2 B,3A,3|G,3F,4-F,-|F,F,3 =C3B,-|B,2 B,3B,3|
E,3E,3 E,2-|E,F,3 E,3G,-|G,2 E,3A,3|E,3/2d3/2G,3 E2-|
EF3 E3F-|F2 d3G3|E,6 E,2-|E,E,3 E,3E,-|
E,2 E,3E,3|E,6 E,2-|E,E,3 ^A,3=A,-|A,2 A,3E,3|
E,6 E,2-|E,E,3 ^A,3=A,-|A,2 A,3E,3|E,6 E,2-|
E,E,3 ^A,3=A,-|A,4- A,E,3|G,6 E,2-|E,F,3 E,3F,-|
F,2 G,3F,3|E,6 E,2-|E,E,3 ^A,3=A,-|A,2 A,3E,3|
E,6 E,2-|E,E,3 ^A,3=A,-|A,2 A,3E,3|E,6 E,2-|
E,E,3 ^A,3=A,-|A,4- A,E,3|G,6 E,2-|E,F,3 E,3F,-|
F,2 G,3E,3|F,6 f2-|fa3 =c3B,-|B,4- B,f3|
F,6 f2-|fa3 =c3B,-|B,4- B,f3|F,6 f2-|
fa3 =c3B,-|B,4- B,f3|F,3F,3 F,2-|F,F,3 F,3F,-|
F,2 E,3E,3|=F,3^F,3 F,2-|F,F,3 =C3B,-|B,2 B,3B,3|
F,6 F,2-|F,F,3 =C3B,-|B,2 B,3B,3|F,3F,3 F,2-|
F,F,3 =C3B,-|B,2 B,3B,3|E,6 E2-|ED3 e3=C-|
=C2 B,3A,3|G,3F,4-F,-|F,F,3 =C3B,-|B,2 B,3B,3|
E,3E,3 E,2-|E,F,3 E,3G,-|G,2 E,3A,3|E,3A,3 z2|
z8|z8|z3E,3 E,2-|E,E,3 E,3E,-|
E,2 E,3E,3|=F,3E,3 E,2-|E,E,3 E,3E,-|E,2 E,3E,3|
=F,3E,3 E,2-|E,E,3 E,3E,-|E,2 E,3E,3|=F,3E,3 E,2-|
E,E,3 E,3E,-|E,2 E,3E,3|=F,3E,3 E,2-|E,E,3 E,3E,-|
E,2 E,3E,3|=F,3E,3 E,2-|E,E,3 E,3E,-|E,2 E,3E,3|
=F,3E,3 E,2-|E,E,3 E,3E,-|E,2 E,3E,3|=F,3E,3 E,2-|
E,E,3 E,3E,-|E,2 E,3E,3|=F,3E,3 E,2-|E,E,3 E,3E,-|
E,2 E,3E,3|=F,3E,3 E,2-|E,E,3 E,3E,-|E,2 E,3E,3|
=F,3E,3 E,2-|E,E,3 E,3E,-|E,2 E,3E,3|=F,3E,3 E,2-|
E,E,3 E,3E,-|E,2 E,3E,3|^F,3F,3 F,2-|F,F,3 F,3F,-|
F,2 F,3F,3|F,3F,3 F,2-|F,F,3 F,3F,-|F,2 F,3F,3|
G,3F,3 F,2-|F,F,3 F,3F,-|F,2 F,3F,3|F,3F,3 F,2-|
F,F,3 F,3F,-|F,2 F,3F,3|G,3F,3 F,2-|F,F,3 F,3F,-|
F,2 F,3F,3|F,3F,3 F,2-|F,F,3 F,3F,-|F,2 F,3F,3|
G,3F,3 F,2-|F,F,3 F,3F,-|F,2 F,3F,3|F,3F,3 F,2-|
F,F,3 F,3F,-|F,2 E,3E,3|=F,3^F,4-F,-|F,F,3 =C3B,-|
B,2 B,3B,3|F,6 F,2-|F,F,3 =C3B,-|B,2 B,3B,3|
F,3F,3 F,2-|F,F,3 =C3B,-|B,2 B,3B,3|E,3e3 E2-|
EE,3 D3E,-|E,2 B,3E3|G,3F,3 F,2-|F,F,3 =C3B,-|
B,2 B,3B,3|E,6 E,2-|E,E,3 E,3E,-|E,2 E,3E,3|
=F,3^F,3 F,2-|F,F,3 =C3B,-|B,2 B,3B,3|F,6 F,2-|
F,F,3 =C3B,-|B,2 B,3B,3|F,3F,3 F,2-|F,F,3 =C3B,-|
B,2 B,3B,3|E,3^g3 A,3/2B,/2-|B,D3 e3E-|E2 D3B,3|
G,3F,3 F,2-|F,F,3 =C3B,-|B,2 B,3B,3|E,6 E,2-|
E,F,3 E,3G,-|G,2 E,3A,3|E,3/2d3/2G,3 E2-|E=c3 E3F-|
F2 G3d3|E,8-|E,8-|E,2 E6|
B6 B2-|Bf3 ^A3=A-|A2 E3E3|E6 B2-|
Bf3 ^A3=A-|A4- AE3|E,6 E,2-|E,E,3 ^A,3=A,-|
A,2 A,3A,3|E,3E,3 E,2-|E,E,3 ^A,3=A,-|A,2 A,3A,3|
E,3^g3 E,2-|E,E,3 ^A,3=A,-|A,2 A,3A,3|E,6 E,2-|
E,E,3 ^A,3=A,-|A,2 A,3A,3|E,6 E,2-|E,E,3 ^A,3=A,-|
A,2 A,3E,3|G,4- G,/2e3/2 E,2-|E,F,3 E,3F,-|F,2 G,3F,3|
E,3E,3 E,2-|E,E,3 E,3E,-|E,2 E,3E,3|=F,3E,3 E,2-|
E,E,3 E,3E,-|E,2 E,3E,3|=F,3E,3 E,2-|E,E,3 E,3E,-|
E,2 E,3E,3|=F,3E,3 E,2-|E,E,3 E,3E,-|E,2 E,3E,3|
=F,3E,3 E,2-|E,E,3 E,3E,-|E,2 E,3E,3|=F,3E,3 E,2-|
E,E,3 E,3E,-|E,2 E,3E,3|=F,3E,3 E,2-|E,E,3 E,3E,-|
E,2 E,3E,3|=F,3E,3 E,2-|E,E,3 E,3E,-|E,2 E,3E,3|
=F,3E,3 E,2-|E,E,3 E,3E,-|E,2 E,3E,3|E,3E,3 E,2-|
E,E,3 E,3E,-|E,2 E,3E,3|E,3E,3 E,2-|E,E,3 E,3E,-|
E,2 E,3E,3|E,3E,3 E,2-|E,E,3 E,3E,-|E,2 E,3E,3|
E,3E,3 E,2-|E,E,3 E,3E,-|E,2 E,3E,3|E,3E,3 E,2-|
E,E,3 E,3E,-|E,2 E,3E,3|E,3E,3 E,2-|E,E,3 E,3E,-|
E,2 E,3E,3|E,3E,3 E,2-|E,E,3 E,3E,-|E,2 E,3E,3|
E,3E,3 E,2-|E,E,3 E,3E,-|E,2 E,3E,3|E,3E,3 E,2-|
E,E,3 E,3E,-|E,2 E,3E,3|E,3E,3 E,2-|E,E,3 E,3E,-|
E,2 E,3E,3|E,3E,3 E,2-|E,E,3 E,3E,-|E,2 E,3E,3|
E,3E,3 E,2-|E,E,3 E,3E,-|E,2 E,3E,3|E,3E,3 E,2-|
E,E,3 E,3E,-|E,2 E,3E,3|E,3
