X:1
T:Minuet in G #2 (original key G major)
C:Bach
Z:Hoho windfola server
M:3/4
L:1/8
Q:118 =1/4
K:C
c/4C3/4 e g c' d/4G,3/4 b | c'/4C,3/4 E, c/4G,3/4 C c/4G,3/4 E, |
c/4C,3/4 e g c' d/4G,3/4 b | c'/4C,3/4 E, c/4G,3/4 C c/4G,3/4 E, |
a/4F,7/4 a/4C7/4 a/4F,3/4 c' | g/4C,7/4 g/4C7/4 g/4C,3/4 c' |
f/4D,7/4 g/4B,3/4 f e/4C3/4 f/2 | d/4e/4 d/4G,3/4 A, B, G, A, B, |
c/4C3/4 e g c' d/4G,3/4 b | c'/4C,3/4 E, c/4G,3/4 C c/4G,3/4 E, |
c/4C3/4 e g c' d/4G,3/4 b | c'/4C,3/4 E, c/4G,3/4 C c/4G,3/4 E, |
a/4F,7/4 g/4A,3/4 f e/4C3/4 d |
g/4E,7/4 f/4G,3/4 e d/4C3/4 c3/4 | F,/4d2/3 e2/3 f2/3 G2 B/4G,7/4 |
c/4C7/4 G,2 C,2 |
c/4C3/4 e g c' d/4G,3/4 b | c'/4C,3/4 E, c/4G,3/4 C c/4G,3/4 E, |
c/4C3/4 e g c' d/4G,3/4 b | c'/4C,3/4 E, c/4G,3/4 C c/4G,3/4 E, |
a/4F,7/4 a/4C7/4 a/4F,3/4 c' | g/4C,7/4 g/4C7/4 g/4C,3/4 c' |
f/4D,7/4 g/4B,3/4 f e/4C3/4 f/2 | d/4e/4 d/4G,3/4 A, B, G, A, B, |
c/4C3/4 e g c' d/4G,3/4 b | c'/4C,3/4 E, c/4G,3/4 C c/4G,3/4 E, |
c/4C3/4 e g c' d/4G,3/4 b | c'/4C,3/4 E, c/4G,3/4 C c/4G,3/4 E, |
a/4F,7/4 g/4A,3/4 f e/4C3/4 d |
g/4E,7/4 f/4G,3/4 e d/4C3/4 c3/4 | F,/4d2/3 e2/3 f2/3 G2 B/4G,7/4 |
c/4C7/4 G,2 C,2 |
c/4A,3/4 d e/4^G,3/4 d c/4E,3/4 B | c/4A,7/4 A/4E,7/4 A/4A,7/4 |
c'/4A,3/4 b a/4C3/4 c' b/4E3/4 a | b/4E,3/4 ^G, e/4B,3/4 E e/4B,3/4 ^G, |
c'/4A,3/4 b a/4C3/4 c' b/4E3/4 a | b/4E,7/4 e/4D7/4 a/4C6/4 |
D/4b2/3 c'2/3 d2/3 e/4E7/4 ^g/4E,7/4 | a/4A,11/4 ^g a b |
c'/4E,7/4 c'/4G,3/4 b a/4C3/4 g | a/4F,7/4 a/4G,3/4 g f/4A,3/4 e |
f/4D,7/4 f/4E,3/4 e d/4F,3/4 c |
B/4G,7/4 A/4D,3/4 B G/4G,7/4 | d/4B,3/4 G, G/4B,3/4 G, G/4B,3/4 G, |
e/4C3/4 G, G/4C3/4 G, G/4C3/4 G, | f/4B,7/4 g/4G,3/4 f e/4C3/4 f/2 |
d/4e/4 d/4G,3/4 A, B, G, A, B, | c/4C3/4 e g c' d/4G,3/4 b |
c'/4C,3/4 E, c/4G,3/4 C c/4G,3/4 E, |
c/4C,3/4 e g c' d/4G,3/4 b | c'/4C,3/4 E, c/4G,3/4 C c/4G,3/4 E, |
a/4F,7/4 g/4A,3/4 f e/4C3/4 d | g/4E,7/4 f/4G,3/4 e d/4C3/4 c3/4 |
F,/4d2/3 e2/3 f2/3 G/4G,7/4 B/4G,7/4 | c/4C7/4 G,2 C,2 |
c/4A,3/4 d e/4^G,3/4 d c/4E,3/4 B | c/4A,7/4 A/4E,7/4 A/4A,7/4 |
c'/4A,3/4 b a/4C3/4 c' b/4E3/4 a | b/4E,3/4 ^G, e/4B,3/4 E e/4B,3/4 ^G, |
c'/4A,3/4 b a/4C3/4 c' b/4E3/4 a | b/4E,7/4 e/4D7/4 a/4C6/4 |
D/4b2/3 c'2/3 d2/3 e/4E7/4 ^g/4E,7/4 | a/4A,11/4 ^g a b |
c'/4E,7/4 c'/4G,3/4 b a/4C3/4 g | a/4F,7/4 a/4G,3/4 g f/4A,3/4 e |
f/4D,7/4 f/4E,3/4 e d/4F,3/4 c |
B/4G,7/4 A/4D,3/4 B G/4G,7/4 | d/4B,3/4 G, G/4B,3/4 G, G/4B,3/4 G, |
e/4C3/4 G, G/4C3/4 G, G/4C3/4 G, | f/4B,7/4 g/4G,3/4 f e/4C3/4 f/2 |
d/4e/4 d/4G,3/4 A, B, G, A, B, | c/4C3/4 e g c' d/4G,3/4 b |
c'/4C,3/4 E, c/4G,3/4 C c/4G,3/4 E, |
c/4C,3/4 e g c' d/4G,3/4 b | c'/4C,3/4 E, c/4G,3/4 C c/4G,3/4 E, |
a/4F,7/4 g/4A,3/4 f e/4C3/4 d | g/4E,7/4 f/4G,3/4 e d/4C3/4 c3/4 |
F,/4d2/3 e2/3 f2/3 G/4G,7/4 B/4G,7/4 | c/4C7/4 G,2 C,2 |
