X:1
T:Tetris - Song B
Z:Rokmai
M:4/4
L:1/8
Q:1/4=180
K:G
e2 Bc de/2d/2 cB|A2 Ac e2 dc|B3c d2 e2|c2 A2 A4|
zd2=f a2 g=f|e3c e2 dc|B2 Bc d2 e2|c2 A2 A2 z2|
e2 Bc de/2d/2 cB|A2 Ac e2 dc|B3c d2 e2|c2 A2 A4|
zd2=f a2 g=f|e3c e2 dc|B2 Bc d2 e2|c2 A2 A2 z2|
E4 C4|D4 B,4|C4 A,4|^G,4 B,2 z2|
E4 C4|D4 B,4|C2 E2 A4|^G4 z4|
e2 Bc de/2d/2 cB|A2 Ac e2 dc|B3c d2 e2|c2 A2 A4|
zd2=f a2 g=f|e3c e2 dc|B2 Bc d2 e2|c2 A2 A2 z2|
e2 Bc de/2d/2 cB|A2 Ac e2 dc|B3c d2 e2|c2 A2 A4|
zd2=f a2 g=f|e3c e2 dc|B2 Bc d2 e2|c2 A2 A2