X:1
T:Earthbound - Hotel
M:4/4
L:1/8
Q:1/4=140
K:G
G^D =DC ^G=G3-|G8|GC D^D =FG3|^G/2=G/2=F6-=F-|
=F3=F G=F3|^D/2=F/2^D3 =D/2^D/2=D2C|^A^G3 ^A^G3|=G4- Gz3|
G^D =DC ^G=G3-|G8|GC D^D =FG3|^G/2=G/2=F6-=F-|
=F3=F G=F3|^D/2=F/2^D3 =D/2^D/2=D2C|^A^G3 ^A^G3|=G4- Gz3|
G^D =DC ^G=G3-|G8|GC D^D =FG3|^G/2=G/2=F6-=F-|
=F3=F G=F3|^D/2=F/2^D3 =D/2^D/2=D2C|^A^G3 ^A^G3|=G4- Gz3|
G^D =DC ^G=G3-|G8|GC D^D =FG3|^G/2=G/2=F6-=F-|
=F3=F G=F3|^D/2=F/2^D3 =D/2^D/2=D2C|^A^G3 ^A^G3|=G4- G
