X:1
T:Earthbound - Hippie Attack!
M:4/4
L:1/8
Q:1/4=180
K:G
z=c ^ce aa aa|af ef ee ee|ef ef af ef|af ef z=c'3-|
=c'3z d'z d'2|d'z d'3/2z3/2d' d'2|d'2 d'2 aa ag|aa ga z=c' a=g|
^d=d =cA ^d2 ^d2|^d=d =cA zA =G^D|=D=C A,=G, z^D EA|=GE =D=C A,z2E,-|
E,4 EE FE|EE FE EE FE|=GE FE EE FE|EE FE EE FE|
=GE FE AA BA|AA BA AA BA|=cA BA EE FE|EE FE =GE FE|
EE FE BB ^cB|BB cB AA BA|AA BA EE FE|EE FE =GE FE|
EE FE z=c ^ce|aa aa af ef|ee ee ef ef|af ef af ef|
z=c'6z|d'z d'2 d'z d'3/2z/2|zd' d'2 d'2 d'2|aa a^g aa ga|
z=c' a=g ^d=d =cA|^d2 ^d2 ^d=d =cA|zA =G^D =D=C A,=G,|z^D EA =GE =D=C|
A,z2E,4-E,|EE FE EE FE|EE FE =GE FE|EE FE EE FE|
EE FE =GE FE|AA BA AA BA|AA BA =cA BA|EE FE EE FE|
=GE FE EE FE|BB ^cB BB cB|AA BA AA BA|EE FE EE FE|
=GE FE EE FE|
