X:1
T:Forrest Gump Main Title
C:Alan Silvestri
Z:Hoho windfola server
M:4/4
L:1/8
Q:100 =1/4
K:A
A, E2 E2 E2 E | A, E2 E2 E2 E |
A, E2 E2 E2 E | A, E2 E2 E2 E4/5 |
A,/5c4/5 E/5d e4/5 E/5e9/5 E/5c9/5 E/5e | A,4/5 E/5a9/5 E/5e9/5 E/5c2 E4/5 |
A,/5d4/5 F/5e f4/5 F/5f9/5 F/5d9/5 F/5f | A, F2 F2 F2 F4/5 |
A,/5d4/5 F/5e f4/5 F/5f9/5 F/5d9/5 F/5f | G,4/5 E/5b9/5 E/5g9/5 E/5e2 E4/5 |
A,/5c4/5 E/5d e4/5 E/5e9/5 E/5a9/5 E/5e | A, E2 E A, E G, E4/5 |
F,/5f/5A3/5 C/5g/5B4/5 a/5c3/5 C/5a/5c8/5 C/5f/5A8/5 C/5a/5c4/5 | F, C f/5A3/5 C/5a/5c4/5 F,4/5 C/5f/5A4/5 E, C4/5 |
D,/5d/5F3/5 A,/5e/5G4/5 f/5A3/5 A,/5f/5A8/5 A,/5d/5F8/5 A,/5f/5A4/5 | D, A,2 A, D, A, C, A,4/5 |
B,/5d/5F3/5 F,/5e/5G4/5 f/5A3/5 F,/5f/5A4/5 A,4/5 F,/5d/5F8/5 F,/5B/5D4/5 | G, E, c/5E3/5 E,/5d/5F4/5 E,4/5 E,/5B/5D9/5 E,4/5 |
A,/5A/5C4/5 E2 E2 E2 E |
A, E2 E2 E A4/5 E/5B3/5 | A,/5c/5A3/5 E/5d e4/5 E/5e G4/5 E/5c9/5 E/5e4/5 |
A,/5F4/5 E/5a9/5 E/5e E4/5 E/5c2 E4/5 |
A,/5d4/5 F/5e f4/5 F/5f c4/5 F/5d9/5 F/5f4/5 | A,/5B F2 F A F2 F4/5 |
B,/5d/5B3/5 F/5e f4/5 F/5f A4/5 F/5d9/5 F/5f4/5 | G,/5G4/5 E/5b9/5 E/5g9/5 E/5e2 E4/5 |
A,/5c/5A3/5 E/5d e4/5 E/5e G4/5 E/5a9/5 E/5e4/5 | A,/5F E2 E4/5 A,/5E E G, E4/5 |
F,/5f/5A3/5 C/5g/5B4/5 a/5c2/5 C/5a/5c8/5 C/5f/5A8/5 C/5a/5c4/5 |
F, C f/5A3/5 C,/5a/5c4/5 F,4/5 C/5f/5A4/5 E, C4/5 | D,/5d/5F3/5 A,/5e/5G4/5 f/5A3/5 A,/5f/5A8/5 A,/5d/5F8/5 A,/5f/5A4/5 |
D, A,2 A, D, A, C, A,4/5 |B,/5d/5F3/5 F,/5e/5G4/5 f/5A3/5 F,/5f/5A4/5 A,4/5 F,/5d/5F8/5 F,/5B/5D4/5 |
G, E, c/5E3/5 E,/5d/5F4/5 E,4/5 E,/5B/5D9/5 E,4/5 | A,/5c/5A3/5 E,/5d e4/5 E,/5e9/5 E,/5a9/5 E,/5e |
A,4/5 E,/5B e4/5 E,/5b z4/5 E,/5E B4/5 E,/5e4/5 |
A,/5a/5c3/5 E/5d e4/5 E/5e9/5 E/5a9/5 E/5e/5c4/5 | A, E2 E A4/5 E/5B c4/5 E/5d4/5 |
=C,/5e/5=c3/5 =G,/5=f4/5 E/5=g4/5 =G,/5=g4/5 E/5B4/5 =G,/5e E4/5 =G,/5=g4/5 |
=C,/5A =G,4/5 E/5=c'4/5 =G,/5=g4/5 E/5=G4/5 =G,/5e E =G,4/5 | =C,/5=f4/5 A,/5=g4/5 =F/5a4/5 A,/5a E4/5 A,/5=f E4/5 A,/5a |
D A,4/5 D/5=f4/5 A,/5e4/5 =C/5d4/5 A,/5A4/5 =C/5=F4/5 A,/5E4/5 |
D,/5=f/5d3/5 A,/5=g4/5 =F/5a4/5 A,/5a4/5 =F/5c4/5 A,/5=f =F4/5 A,/5a4/5 | =G,/5B D4/5 =G/5d4/5 D/5b B4/5 D/5=g =G D4/5 |
=C,/5e/5=c3/5 =G,/5=f4/5 E/5=g4/5 =G,/5=g4/5 E/5B4/5 =G,/5=c' E4/5 =G,/5=g4/5 |
=C,/5A =G, E =G,4/5 =C,/5=G =G, B, =G,4/5 | A,/5a/5=c3/5 E,/5b/5d3/5 =C/5=c'/5e3/5 E,/5=c'/5e4/5 E4/5 E,/5a/5=c4/5 =C4/5 E,/5=c'/5e4/5 |
A, E,4/5 =C/5a/5=c3/5 E,/5=c'/5e4/5 A,4/5 E,/5a/5=c4/5 =G, E,4/5 |
=F,/5=f/5a3/5 =C,/5=g/5B3/5 A,/5a/5=c3/5 =C,/5a/5=c4/5 =G,4/5 =C,/5=f/5A4/5 A,4/5 =C,/5a/5=c4/5 | =F, =C, A, =C, =F, =C E, =C4/5 |
D,/5=f/5A3/5 A,/5=g/5B3/5 =F/5a/5=c3/5 E/5a/5=c4/5 =F =f/5A9/5 d/5=F4/5 |
=G, D,4/5 B,/5e/5=G =f/5A9/5 d/5=F13/5 | =C,/5=c/5=C4/5 =G2 =G2 =G2 =G |
=C4/5 =G,/5d =g4/5 =G,/5d9/5 =G,/5=g d4/5 =G,/5=G4/5 |
=C,/5=c/5=C4/5 =G,2 =G,2 =G,2 =G | =C,4/5 =G,/5d =g4/5 =G,/5d9/5 =G,/5=g d4/5 =G,/5=G4/5 |
=C,/5d/5D4/5 =G,9/5 =G,/5e/5E9/5 =G,2 =G, | =C,4/5 =G,/5d =g4/5 =G,/5d9/5 =G,/5=g d4/5 =G,/5=G4/5
=C,/5=c/5=C4/5 =G,2 =G,2 =G,2 =G,4/5 | =C,/5=f/5A4/5 =G,2 =G, =g/5B4/5 =G,2 =G,4/5 |
=C,/5e/5=G4/5 =G,2 =G,2 =G,2 =G,4/5 | =C,/5=f/5A4/5 =G,2 =G, =g/5B4/5 =G,2 =G,4/5 |
=C,/5e/5=c4/5 =G,2 =G,2 =G,2 =G,4/5 |
=C,/5=c'/5=f4/5 =G,2 =G, b/5=g4/5 =G,2 =G,4/5 | =C,/5=c/3=g/3=c'/3 =G,2 =G,2 =G,2 =G, |
=C,7/5 =G,/5d8/5 =g7/5 =G,/5d15/5 =G,/5=g8/5 d7/5 =G,/5=G7/5 | =C,/5=c/5=C42/5 =C,/5=C z3
