X:1
T:007 (from "From Russia With Love")
C:John Barry
Z:Hoho windfola server
M:4/4
L:1/8
Q:100 =1/4
K:C
C,3 C,3 C,2 | C,3 D,3 G,2 |
C,3 C,3 C,2 | C,3 D,3 G,2 |
C, ^F/5E4/5 ^F/5E4/5 C, ^F/5E4/5 ^F/5E4/5 C, ^F/5E4/5 |
C, ^F/5E4/5 ^F/5E3/5 D,/5G3/2 =F/2 E/2 _E3/10 G,/5D z | C, ^F/5E4/5 ^F/5E4/5 C, ^F/5E4/5 ^F/5E4/5 C, ^F/5E4/5 |
C, ^F/5E4/5 ^F/5E3/5 D,/5G3/2 =F/2 E/2 _E3/10 G,/5D G,4/5 |
%s
C,/5C E/5G4/5 E/5G4/5 C, E/5G4/5 E/5G4/5 C, E/5G4/5 | C, E/5G4/5 E/5G3/5 D,/5C D/5B,8/5 G,/5A/5F/5B,7/5 |
C,/5G E/5C4/5 E/5C4/5 C, c/5E/5C3/5 E/5C4/5 C, E/5C4/5 | C, E/5C4/5 E/5C3/5 D,/5c B/5F/5D7/5 G,/5G/5F/5B,7/5 |
C,/5A E/5C4/5 E/5C4/5 C, E/5C4/5 E/5C4/5 C, E/5C4/5 | C, E/5C4/5 E/5C3/5 D,/5A G/5F/5B,7/5 G,/5C/5A,/5F7/5 |
C,/5E C/5G,4/5 C/5G,4/5 C, C/5G,4/5 C/5G,4/5 C, C/5G,4/5 | C, C/5G,4/5 C/5G,4/5 D,2 C/5A,/5F,3/5 G, B, |
C,/5C E/5G4/5 E/5G4/5 C, E/5G4/5 E/5G4/5 C, E/5G4/5 | C, E/5G4/5 E/5G3/5 D,/5C D/5B,8/5 G,/5A/5F/5B,7/5 |
C,/5G E/5C4/5 E/5C4/5 C, c/5E/5C3/5 E/5C4/5 C, E/5C4/5 | C, E/5C4/5 E/5C3/5 D,/5c d/5B/5F7/5 G,/5G/5F/5B,7/5 |
C,/5e c/5G/5E3/5 c/5G/5E3/5 C, c/5G/5E3/5 c/5G/5E3/5 C, c/5G/5E3/5 | C, c/5G/5E3/5 c/5G/5E2/5 D,/5e f/5c/5A7/5 G,/5d/5B/5F7/5 |
C,/5g e/5c/5G3/5 e/5c/5G3/5 C, e/5c/5G3/5 e/5c/5G3/5 C, e/5c/5G3/5 | C, e/5c/5G3/5 e/5c/5G3/5 D,2 c/5A/5F3/5 G, B/5F/5D3/5 |
C, ^F/5E4/5 ^F/5E4/5 C, ^F/5E4/5 ^F/5E4/5 C, ^F/5E4/5 | C, ^F/5E4/5 ^F/5E3/5 D,/5G3/2 =F/2 E/2 _E3/10 G,/5D z |
C, ^F/5E4/5 ^F/5E4/5 C, ^F/5E4/5 ^F/5E4/5 C, ^F/5E4/5 | C, ^F/5E4/5 ^F/5E3/5 D,/5G3/2 =F/2 E/2 _E3/10 G,/5D z |
C, ^F,/5E,4/5 ^F,/5E,4/5 C, ^F,/5E,4/5 ^F,/5E,4/5 C, ^F,/5E,4/5 | C, ^F,/5E,4/5 ^F,/5E,3/5 D,/5G,3/2 =F,/2 E,/2 _E,3/10 G,/5D, z |
C, ^F,/5E,4/5 ^F,/5E,4/5 C, ^F,/5E,4/5 ^F,/5E,4/5 C, ^F,/5E,4/5 | C, ^F,/5E,4/5 ^F,/5E,3/5 D,/5G,3/2 =F,/2 E,/2 _E,3/10 G,/5D, G,4/5 |
C,/5C E/5G4/5 E/5G4/5 C, E/5G4/5 E/5G4/5 C, E/5G4/5 | C, E/5G4/5 E/5G3/5 D,/5C D/5B,8/5 G,/5A/5F/5B,7/5 |
C,/5G E/5C4/5 E/5C4/5 C, c/5E/5C3/5 E/5C4/5 C, E/5C4/5 | C, E/5C4/5 E/5C3/5 D,/5c B/5F/5D7/5 G,/5G/5F/5B,7/5 |
C,/5A E/5C4/5 E/5C4/5 C, E/5C4/5 E/5C4/5 C, E/5C4/5 | C, E/5C4/5 E/5C3/5 D,/5A G/5F/5B,7/5 G,/5C/5A,/5F7/5 |
C,/5E C/5G,4/5 C/5G,4/5 C, C/5G,4/5 C/5G,4/5 C, C/5G,4/5 | C, C/5G,4/5 C/5G,4/5 D,2 C/5A,/5F,3/5 G, B, |
C,/5C E/5G4/5 E/5G4/5 C, E/5G4/5 E/5G4/5 C, E/5G4/5 | C, E/5G4/5 E/5G3/5 D,/5C D/5B,8/5 G,/5A/5F/5B,7/5 |
C,/5G E/5C4/5 E/5C4/5 C, c/5E/5C3/5 E/5C4/5 C, E/5C4/5 | C, E/5C4/5 E/5C3/5 D,/5c d/5B/5F7/5 G,/5G/5F/5B,7/5 |
C,/5e c/5G/5E3/5 c/5G/5E3/5 C, c/5G/5E3/5 c/5G/5E3/5 C, c/5G/5E3/5 | C, c/5G/5E3/5 c/5G/5E2/5 D,/5e f/5c/5A7/5 G,/5d/5B/5F7/5 |
C,/5g e/5c/5G3/5 e/5c/5G3/5 C, e/5c/5G3/5 e/5c/5G3/5 C, e/5c/5G3/5 | C, e/5c/5G3/5 e/5c/5G3/5 D,2 c/5A/5F3/5 G, B/5F/5D3/5 |
C, ^F/5E4/5 ^F/5E4/5 C, ^F/5E4/5 ^F/5E4/5 C, ^F/5E4/5 | C, ^F/5E4/5 ^F/5E3/5 D,/5G3/2 =F/2 E/2 _E3/10 G,/5D z |
C, ^F/5E4/5 ^F/5E4/5 C, ^F/5E4/5 ^F/5E4/5 C, ^F/5E4/5 | C, ^F/5E4/5 ^F/5E3/5 D,/5G3/2 =F/2 E/2 _E3/10 G,/5D G,4/5 |
C,/5C ^F/5E4/5 ^F/5E4/5 C, ^F/5E4/5 ^F/5E4/5 C, ^F/5E4/5 | C, ^F/5E4/5 ^F/5E4/5 D, G/2 =F/2 E/2 _E3/10 G,/5D z |
C,/5^F E/5C4/5 E/5C4/5 C, E/5C4/5 E/5C4/5 C, E/5C4/5 | C, ^F/5E4/5 ^F/5E3/5 D,/5G3/2 =F/2 E/2 _E3/10 G,/5D G,4/5 |
C,/5C ^F/5E4/5 ^F/5E4/5 C, ^F/5E4/5 ^F/5E4/5 C, ^F/5E4/5 | C, ^F/5E4/5 ^F/5E4/5 D, G/2 =F/2 E/2 _E3/10 G,/5D z |
C,/5^F E/5C4/5 E/5C4/5 C, E/5C4/5 E/5C4/5 C, E/5C4/5 | C, ^F/5E4/5 ^F/5E3/5 D,/5G3/2 =F/2 E/2 _E3/10 G,/5D G,4/5 |
C,/5C ^F/5E4/5 ^F/5E4/5 C, ^F/5E4/5 ^F/5E4/5 C, ^F/5E4/5 | C, ^F/5E4/5 ^F/5E4/5 D, G/2 =F/2 E/2 _E3/10 G,/5D z |
C,/5^F E/5C4/5 E/5C4/5 C, E/5C4/5 E/5C4/5 C, E/5C4/5 | C, ^F/5E4/5 ^F/5E3/5 D,/5G3/2 =F/2 E/2 _E3/10 G,/5D G,4/5 |
%to s
C,/5C E/5G4/5 E/5G4/5 C, E/5G4/5 E/5G4/5 C, E/5G4/5 | C, E/5G4/5 E/5G3/5 D,/5C D/5B,8/5 G,/5A/5F/5B,7/5 |
C,/5G E/5C4/5 E/5C4/5 C, c/5E/5C3/5 E/5C4/5 C, E/5C4/5 | C, E/5C4/5 E/5C3/5 D,/5c B/5F/5D7/5 G,/5G/5F/5B,7/5 |
C,/5A E/5C4/5 E/5C4/5 C, E/5C4/5 E/5C4/5 C, E/5C4/5 | C, E/5C4/5 E/5C3/5 D,/5A G/5F/5B,7/5 G,/5C/5A,/5F7/5 |
C,/5E C/5G,4/5 C/5G,4/5 C, C/5G,4/5 C/5G,4/5 C, C/5G,4/5 | C, C/5G,4/5 C/5G,4/5 D,2 C/5A,/5F,3/5 G, B, |
C,/5C E/5G4/5 E/5G4/5 C, E/5G4/5 E/5G4/5 C, E/5G4/5 | C, E/5G4/5 E/5G3/5 D,/5C D/5B,8/5 G,/5A/5F/5B,7/5 |
C,/5G E/5C4/5 E/5C4/5 C, c/5E/5C3/5 E/5C4/5 C, E/5C4/5 | C, E/5C4/5 E/5C3/5 D,/5c d/5B/5F7/5 G,/5G/5F/5B,7/5 |
C,/5e c/5G/5E3/5 c/5G/5E3/5 C, c/5G/5E3/5 c/5G/5E3/5 C, c/5G/5E3/5 | C, c/5G/5E3/5 c/5G/5E2/5 D,/5e f/5c/5A7/5 G,/5d/5B/5F7/5 |
C,/5g e/5c/5G3/5 e/5c/5G3/5 C, e/5c/5G3/5 e/5c/5G3/5 C, e/5c/5G3/5 | C, e/5c/5G3/5 e/5c/5G3/5 D,2 c/5A/5F3/5 G, B/5F/5D3/5 |
C, ^F/5E4/5 ^F/5E4/5 C, ^F/5E4/5 ^F/5E4/5 C, ^F/5E4/5 | C, ^F/5E4/5 ^F/5E3/5 D,/5G3/2 =F/2 E/2 _E3/10 G,/5D z |
C, ^F/5E4/5 ^F/5E4/5 C, ^F/5E4/5 ^F/5E4/5 C, ^F/5E4/5 | C, ^F/5E4/5 ^F/5E3/5 D,/5G3/2 =F/2 E/2 _E3/10 G,/5D z4/5 |
%coda
C,/5^F/5E/5C3/5 ^F ^F4/5 C,/5^F/5E/5C3/5 ^F ^F4/5 C,/5^F/5E/5C3/5 ^F4/5 | C,/5^f/5e/5c3/5 ^f ^f4/5 C,/5^f/5e/5c3/5 ^f ^f4/5 C,/5^f/5e/5c3/5 ^f4/5 |
B,/5^f/5^d/5B/5^F7/5 z6 |
