X:1
T:Chrono Trigger - Jurrasic Rhythm
M:4/4
L:1/8
Q:1/4=140
K:D
=F^F zF =F^F zF|GF zF =F^F zF|A4 G4|F6- Fz|
=F^F zF =F^F zF|GF zF =F^F zF|A4 G4|F6- Fz|
F2 FG F3C|EF GA F2 CC|E3D C2 B,D-|D6 z2|
F2 FG F3C|EF GA F2 =F^F|B4 A2 AG|FF =FG ^F4|
z4
=F^F zF =F^F zF|GF zF =F^F zF|A4 G4|F6- Fz|
=F^F zF =F^F zF|GF zF =F^F zF|A4 G4|F6- Fz|
F2 FG F3C|EF GA F2 CC|E3D C2 B,D-|D6 z2|
F2 FG F3C|EF GA F2 =F^F|B4 A2 AG|FF =FG ^F4|