T:Sweet Dreams
C:Eurythmics
Z:Angylion
Q:1/4=126
M:4/4
L:1/8
K:E
|CCccEeCc|A,A,AcG,G,Gc|
|CCccEeCc|A,A,AcG,G,Gc|
|CCccEeCc|A,A,AcG,G,Gc|
|CCccEeCc|A,A,AcG,G,Gc|
|aaaaaaaa|gggggggg|aaaaaaaa|bb bbbbbb|
|CCccEeCc|A,A,AcG,G,Gc|
|CCccEeCc|A,A,AcG,G,Gc|
|CCccEeCc|A,A,AcG,G,Gc|
|CCccEeCc|A,A,AcG,G,Gc|
|aaaaaaaa|gggggggg|aaaaaaaa|bb bbbbbb|
|CCccEeCc|A,A,AcG,G,Gc|
|CCccEeCc|A,A,AcG,G,Gc|
|CCccEeCc|A,A,AcG,G,Gc|
|CCccEeCc|A,A,AcG,G,Gc|
|Gcc/2c/2zzz|Acc/2c/2zzz|
|Gcc/2c/2zzz|Acc/2c/2zzz|
|aaaaaaaa|
|CCccEeCc|A,A,AcG,G,Gc|
|CCccEeCc|A,A,AcG,G,Gc|
|CCccEeCc|A,A,AcG,G,Gc|
|CCccEeCc|A,A,AcG,G,Gc|
|aaaaaaaa|gggggggg|aaaaaaaa|bb bbbbbb|
|CCccEeCc|A,A,AcG,G,Gc|
|CCccEeCc|A,A,AcG,G,Gc|
|CCccEeCc|A,A,AcG,G,Gc|
|CCccEeCc|A,A,AcG,G,Gc|
|aaaaaaaa|gggggggg|aaaaaaaa|bb bbbbbb|
|CCccEeCc|A,A,AcG,G,Gc|
|CCccEeCc|A,A,AcG,G,Gc|
|CCccEeCc|A,A,AcG,G,Gc|
|CCccEeCc|A,A,AcG,G,Gc|
|Gcc/2c/2zzz|Acc/2c/2zzz|
|Gcc/2c/2zzz|Acc/2c/2zzz|
|CCccEeCc|A,A,AcG,G,Gc|
|CCccEeCc|A,A,AcG,G,Gc|
|CCccEeCc|A,A,AcG,G,Gc|
|CCccEeCc|A,A,AcG,G,Gc|
|aaaaaaaa|gggggggg|aaaaaaaa|bb bbbbbb|
|CCccEeCc|A,A,AcG,G,Gc|
|CCccEeCc|A,A,AcG,G,Gc|
|CCccEeCc|A,A,AcG,G,Gc|
|CCccEeCc|A,A,AcG,G,Gc|
|aaaaaaaa|gggggggg|aaaaaaaa|bb bbbbbb|
|CCccEeCc|A,A,AcG,G,Gc|
|CCccEeCc|A,A,AcG,G,Gc|
|CCccEeCc|A,A,AcG,G,Gc|
|CCccEeCc|A,A,AcG,G,Gc|
|C2C2c2c2|E2e2C2c2|
A,2A,2A2c2|G,2G,2G2c2|
|CCCCCCCC|
