X:1
T:Greenbird
C:Thrimlion
M:4/4
L:1/4
Q:1/4=125
K:C
F C A G | F/2 F/2 C A G | F/2 G/2 A/2 _B/2 C2 | F/2 G/2 A/2 _B/2 C2 |
F C A G | F/2 F/2 C/2 C/2 A G | F/2 G/2 A/2 _B/2 C2 | F/2 G/2 A/2 _B/2 C2 |
A A _B ^F | A G3 | C F A G | A/2 c/2 f/2 c/2 _B/2 c/2 g/2 C/2 |A/2 c/2 f/2 c/2 _B/2 c/2 g/2 C/2 | F C A G | F/2 F/2 C A G | F/2 G/2 A/2 _B/2 C2 |F/2 G/2 A/2 _B/2 C2 | F C A G | F/2 F/2 C/2 C/2 A G | F/2 G/2 A/2 _B/2 C2 |F/2 G/2 A/2 _B/2 C2 | C F A G/2 G/2 | A/2 c/2 f/2 c/2 _B/2 c/2 g/2 C/2 | A/2 c/2 f/2 c/2 _B/2 c/2 g/2 C/2 |F C A G | F/2 F/2 C A G | F/2 G/2 A/2 _B/2 C2 | F/2 G/2 A/2 _B/2 C2 |F C A G | F/2 F/2 C/2 C/2 A G | F/2 G/2 A/2 _B/2 C2 | F/2 G/2 A/2 _B/2 C2 |A A _B ^F | A G3 | C F A G | A c/2 f/2 c/2 _B c/2 g/2 C/2 |A/2 c/2 f/2 c/2 _B/2 c/2 g/2 C/2 | A/2 c/2 f/2 c/2 _B/2 c/2 g/2 C/2 | A/2 c/2 f/2 c/2 _B/2 c/2 g/2 C/2 | A/2 c/2 f/2 c/2 _B/2 c/2 g/2 C/2 | A4 |