X:1
T: Highland Laddie (Bluebells of Scotland)
C:celestial
Q:1/4=125
M:4/4
L:1/8
K:G
G,3 A, B,2  B,2  |C  B, A, G, B,4 |B,2 A,2 A,2 G, A, |B,2 A,2 A,2 G, E, |
G,3 A, B,2 B,2 |C B, A, G, B,3 A, |G,2 E,2 E,2 D, E, |G,2 E,2 E,4 |
G,3 A, B,2  B,2  |C  B, A, G, B,4 |B,2 A,2 A,2 G, A, |B,2 A,2 A,2 G, E, |
G,3 A, B,2 B,2 |C B, A, G, B,3 A, |G,2 E,2 E,2 D, E, |G,2 E,2 E,4 |
D2 |E2 G2 D3 B, |C B, A, G, B,4 |B,2 A,2 A,2 G, A, |B,2 A,2 A,3 D |
E2 G2 D2 B,2 |C B, A, G, B,3 A, |G,2 E,2 E,2 D, E, |G,2 E,2 E,4 |D2 |
E2 G2 D3 B, |C B, A, G, B,4 |B,2 A,2 A,2 G, A, |B,2 A,2 A,3 D |
E2 G2 D2 B,2 |C B, A, G, B,3 A, |G,2 E,2 E,2 D, E, |G,2 E,2 E,4 |
