X:6 %Music
T:In Dreams %Tune name
C:Composer: %Tune composer
N:Remarks: %Tune infos
Q:1/4=118 %Tempo
V:1 %
%!STAVE 0 '' @
%!INSTR 'Piano 1' 0 0 @
M:4/4 %Meter
L:1/8 %
K:C
z4 z2 CD |E2 G2 E2 D2 |C4 z2 EG |A2 c2 B2 G2 |E4 D2 CD |E2 G2 E2 D2 |C4 z2 EG |A4 AA GE |D8 |