X:9 %Music
T:A Health for the Company %Tune name
C:Traditional %Tune composer
N: %Tune infos
Q:1/4=104 %Tempo
V:1 %
M:3/4 %Meter
L:1/8 %
K:G
z4 ee |e2 A3 B |AG E3 E |E2 B2 G2 |A6 |A2 c3 g |g2 e2 z d |e2 c3 d |B4 z2 |A2 c3 g |g2 e2 z d |c2 A3 B |A4 EE |E2 B2 B2 |AG E3 E |E2 B2 G2 |A6- |A2 z4 |]
