X: 1
T: Pirates Clarinet
Z: Devire
M: 3/4
L: 1/8
Q:1/4=120
K: F
F,2A,2|D3 EF2|E2A,2G,2|F,2C2F2|
E4A,C|F3 CC2|_D2=D2_D2|A,2-A,/2C3/2G,2|
A,/2A,/2A,z CA,2|A,4=DE|D3 ED2|E2C2E2|
F3 EC2|B,4B,_D|=D2D2D2|D2D2D2|
D3 E_D2|A,3 A,=D_D|A,6|=D6|
_D6|=D6|_D4=DE|F3 ED2|
C2F2A,2|G,3 F,G,2|A,6|D3/2_D/2=D EFA,|
D3/2F/2E CDA,|D3/2C/2D EFG|A2E2C2|D3/2C/2D EF2|
D3/2F/2E CDA,|D3/2C/2D EFG|z6|z2F3E|
F2E2C2|G,2F,2C2|F2E4|z2C2B,2|
z2D2_D2|z2=D4-|D6-|D4