X: 1
T: Pat Doyles Jig
M: 6/8
L: 1/8
Q:1/4=196
K:C
G/2e2ze/2 c2g|ecG E3/2F/2G|Acd cde|fAc G/2G/2GG|
G/2e2ze/2 c2g|ecG E3/2F/2G|Acd Bdg|ecc c2g|
G/2e2ze/2 c2g|ecG E3/2F/2G|Acd cde|fAc G/2G/2GG|
G/2e2ze/2 c2g|ecG E3/2F/2G|Acd Bdg|ecc c2G|
AGA cAe|Aeg ^fBg|AGA cAe|^fdB DEG|
AGA cAe|Aeg ^fBg|aeg ^fed|cBG A2G|
AGA cAe|Aeg ^fBg|AGA cAe|^fdB DEG|
AGA cAe|Aeg ^fBg|aeg ^fed|cBG A2g|
G/2e2ze/2 c2g|ecG E3/2F/2G|Acd cde|=fAc G/2G/2GG|
G/2e2ze/2 c2g|ecG E3/2F/2G|Acd Bdg|ecc c2g|
G/2e2ze/2 c2g|ecG E3/2F/2G|Acd cde|fAc G/2G/2GG|
G/2e2ze/2 c2g|ecG E3/2F/2G|Acd Bdg|ecc c2G|
AGA cAe|Aeg ^fBg|AGA cAe|^fdB DEG|
AGA cAe|Aeg ^fBg|aeg ^fed|cBG A2G|
AGA cAe|Aeg ^fBg|AGA cAe|^fdB DEG|
AGA cAe|Aeg ^fBg|aeg ^fed|cBG A2g|
G/2e2ze/2 c2g|ecG E3/2F/2G|Acd cde|=fAc G/2G/2GG|
G/2e2ze/2 c2g|ecG E3/2F/2G|Acd Bdg|ecc c2g|
G/2e2ze/2 c2g|ecG E3/2F/2G|Acd cde|fAc G/2G/2GG|
G/2e2ze/2 c2g|ecG E3/2F/2G|Acd Bdg|ecc e3z|
e6z|e6|
