X:1
T:Violin excerpt from Tzigane
C:Maurice Ravel
M:2/4
Q:1/4=72 % 1/16 is one server-quantized tick
Z:Northman
K:D
L:1/16
AdFA AdFA|BdGd AdFA|Acec Acea|fdAF DFAd|=ceG=c BdFB|A=cEA GBdg|
bagf gfeg|fe^df fee^d|efgb agfe|dece dz3|]