X:1
T:Mrs. Robinson, Simon & Garfunkel (lute solo) [v.1 by Cranberry]
N:"Mrs. Robinson" by Simon and Garfunkel, from Bookends, 1968.
N:LotRO adaptation by Cranberry of the Mighty Mighty Bree Tones, Landroval server.
M:4/4
L:1/8
Q:1/4=188
K:A % 3 sharps
x8| 
F,-[F,-F,] [B,/2-F,/2]B,/2C, F,E,2F,-| 
F,4- [F,3/2-C,3/2]F,/2- [F,-^D,]F,/2x/2| 
F,-[F,-F,] [B,/2-F,/2]B,/2C, F,E,2F,-|
F,4- [F,-C,]F,- [F,-^D,]F,-| 
F,/2x/2F, B,C, F,E,2F,-| 
F,4- [F,3/2-C,3/2]F,/2- [F,-^D,]F,| 
F,-[F,-F,] [B,/2F,/2]x/2C, F,E,2F,-|
F,4- [F,-C,]F,- [F,^D,]x| 
[g-e-F,-][geF,-F,] [B,/2-F,/2]B,/2[g/2e/2C,/2-]C,/2 [f/2^d/2F,/2-]F,/2[f-^dE,-] [f/2E,/2-]E,/2[e-c-F,-]| 
[e3/2c3/2F,3/2-]F,3/2-[e/2c/2F,/2-]F,/2- [^d/2B/2F,/2-C,/2-][F,/2-C,/2-][^d/2-B/2-F,/2-C,/2][^d/2B/2-F,/2-] [B/2F,/2-^D,/2-][F,/2-^D,/2][c/2-^A/2-F,/2][c/2-^A/2-]| 
[c3/2^A3/2F3/2-F,3/2-][F-F,]F/2[c/2^A/2=A/2-]A/2 [B/2G/2-F,/2-][G/2F,/2][B-F-E,] [B/2F/2-]F/2[^A-F-F,-]|
[^A2F2-F,2-] [F/2-F,/2]F3/2- [F-C,]F- [F-^D,]F-| 
[F/2F,/2-]F,/2-[=A/2F,/2-]F,3/2F,/2x/2 [A-B,][AC,-] [F-C,]F/2x/2| 
[f3/2^d3/2B,3/2-]B,3/2-[f/2^d/2B,/2]x/2 [e/2c/2F,/2-]F,/2-[e-cF,-] [e/2F,/2]x/2[^d-B-F,]| 
[^d/2B/2-B,/2-][B/2B,/2-]B,2-B,/2x/2 [^d/2B/2F,/2-]F,/2-[^d3/2B3/2F,3/2]x/2[c-A-F,]|
[c3/2A3/2-B,3/2-][A/2B,/2-] B,3/2x/2 F,2- F,/2x/2F,| 
B,2- [B,-B,][B,/2C,/2]x/2 [F,-E,][F,-F,] [A,/2-F,/2]A,/2[B,-F,]| 
[B,2-E,2-] [g/2e/2B,/2-E,/2-][B,/2-E,/2-][ge-B,-E,] [f/2e/2=d/2B,/2-F,/2-][B,/2-F,/2-][f/2-d/2-B,/2-F,/2][f/2d/2B,/2-] [B,G,-][e/2-c/2-G,/2][e/2c/2]| 
A,-[e2c2A,2-]A,/2x/2 [d/2B/2-B,/2-][B/2B,/2-]B,/2x/2 [c/2A/2C,/2-]C,x/2|
[f/2d/2D,/2-]D,/2-[f3/2d3/2D,3/2-]D,/2-[e/2-c/2-D,/2][e/2c/2] C,/2x/2[e-cC,-] [e/2C,/2-]C,/2-[d/2-B/2-C,/2][d/2-B/2-]| 
[d2-B2-B,2] [d-B-][d/2B/2B,/2]x/2 F,2 xF,/2x/2| 
B,2- B,/2x/2x B,A, F,E,| 
F,2- F,/2x/2F,2<C,2C,/2x/2|
F,2- F,/2x/2F,/2x/2 C,2 F,3/2x/2| 
E,2 xE,2<E,2E,| 
E,2 [B-G][B/2E,/2-]E,/2 [c3/2A3/2F,3/2]x/2 [d-BG,-][d/2G,/2]x/2| 
[e2-c2-A,2-] [e/2c/2-A,/2]c/2A, [e/2c/2-E,/2-][c/2E,/2-][f-dE,-] [f/2E,/2]x/2[f-cE,]|
[f/2F,/2-]F,/2-[c-BF,-] [c/2F,/2]x/2[c-A-C,] [c/2A/2-C,/2-][A/2C,/2]A, B,3/2x/2| 
[a2-e2-A,2-] [a/2e/2A,/2]x/2[e/2c/2A,/2-]A,/2 [e/2c/2E,/2-]E,/2-[fdE,-] E,[f-cE,]| 
[f/2F,/2-]F,/2-[d3/2B3/2F,3/2]x/2[c-A-C,] [c/2A/2C,/2-]C,/2[d-BA,] [d/2B,/2-]B,/2[d-A-C,]| 
[d2-A2-D,2-] [d/2-A/2-D,/2][d/2-A/2-][d-A-D,] [dA-C,-][A3/2C,3/2]x/2C,|
B,2 xB, [f/2d/2-A,/2-][d/2A,/2][e-c-C,] [e/2c/2D,/2]x/2[e-B-^D,]| 
[e2-B2-E,2] [e-B-][e/2B/2-E,/2-][B/2-E,/2] [B/2=D,/2-]D,2x/2D,| 
C,2 [B-G][B/2C,/2-]C,/2 [c3/2A3/2B,3/2-]B,/2 [d-B][d/2B,/2]x/2| 
[e2-c2-A,2-] [e/2c/2-A,/2]c/2A, [e/2c/2-E,/2-][c/2E,/2-][f-dE,-] [f/2E,/2]x/2[f-cE,]|
[f/2F,/2-]F,/2-[c-BF,-] [c/2F,/2]x/2[c-A-C,] [c/2A/2-C,/2-][A/2C,/2]A, B,3/2x/2| 
[a2-e2-A,2-] [a/2e/2A,/2]x/2[e/2c/2A,/2-]A,/2 [e/2c/2E,/2-]E,/2-[fdE,-] E,[f-cE,]| 
[f/2F,/2-]F,/2-[d3/2B3/2F,3/2]x/2[c-A-C,] [c/2A/2C,/2-]C,/2[d-BA,] [d/2B,/2-]B,/2[d-A-C,]| 
[d2-A2-D,2-] [d/2-A/2-D,/2][d/2-A/2-][d-A-D,] [dA-C,-][A3/2C,3/2]x/2C,|
B,2 x[fdB,] A,[e-c-G,] [e/2c/2A,/2]x/2[d-B-^A,]| 
[d2-B2-B,2-] [d/2-B/2-B,/2][d/2-B/2-][d/2B/2-B,/2-][B/2-B,/2] [B/2F,/2-]F,2x/2F,| 
B,2- B,/2x/2[e-B-B,] [e/2B/2F,/2-]F,/2-[d-B-F,] [d/2B/2B,/2-]B,/2-[c/2-^A/2-B,/2][c/2-^A/2-]| 
[c-^A-F,-][c^AF,-F,] [B,F,]C, F,E,2F,-|
F,4- [F,3/2-C,3/2]F,/2- [F,-^D,]F,| 
F,-[F,-F,] [B,/2F,/2]x/2C, F,E,2F,-| 
F,4- [F,-C,]F,- [geF,^D,]x| 
[geF,-][F,-F,] [g/2-e/2-B,/2-F,/2][g/2e/2B,/2][f^dC,] F,[f-^dE,-] [f/2E,/2-]E,/2[ecF,-]|
F,-[e/2-c/2F,/2-][e/2F,/2-] F,-[ecF,-] [^dBF,-C,-][F,/2-C,/2]F,/2- [^dBF,-^D,]F,/2x/2| 
[c^AF-F,-][F-F,-] [^d/2-B/2-F/2-F,/2][^d/2B/2F/2][c^A=A] [GF,][BF-E,] F[^A-F-F,-]| 
[^A2-F2-F,2-] [^A/2-F/2-F,/2][^A3/2-F3/2-] [^A-F-C,][^A-F-] [^AF-^D,]F-| 
[F/2F,/2-]F,2-F,/2F,/2x/2 B,C,- [f/2-^d/2C,/2-][f/2C,/2]x|
[f^dB,-]B,- [f-^dB,-][f/2e/2-c/2-B,/2][e/2c/2] F,-[e-cF,-] [e/2F,/2]x/2[^dBF,]| 
B,-[^d3/2-B3/2B,3/2-][^d/2B,/2-]B,/2x/2 [^d2-B2-F,2-] [^d/2-B/2-F,/2][^d/2-B/2-][^d/2B/2F,/2-][c/2-=A/2-F,/2]| 
[c3-A3-B,3-][c/2-A/2-B,/2][c/2-A/2-] [c2-A2-F,2-] [c/2-A/2-F,/2][c/2-A/2-][c-A-F,]| 
[c2-A2-B,2-] [c/2A/2-B,/2-B,/2-][A/2B,/2-B,/2][B,/2C,/2]x/2 [F,-E,][F,-F,] [A,/2-F,/2]A,/2[B,-F,]|
[B,2-E,2-] [e/2B,/2-E,/2-][B,/2-E,/2-][eB,-E,] [=d3/2B,3/2-F,3/2]B,/2- [dB,G,-][c/2-G,/2]c/2| 
A,-[c2-A,2-][c/2A,/2]x/2 [B3/2B,3/2]x/2 [AC,-]C,/2x/2| 
[dD,-]D,- [dD,-][c/2-D,/2]c/2- [c/2C,/2]x/2[A/2C,/2-]C,/2- [B3/2-C,3/2]B/2-| 
[B2-B,2] B-[B/2-B,/2]B/2- [B2-F,2] B/2x/2F,/2x/2|
B,2- B,/2x/2x B,A, F,E,| 
F,2- [c/2-F,/2]c/2-[c-F,] [c3/2C,3/2-]C,/2- [B/2-C,/2]B/2[^A/2-C,/2]^A/2-| 
[^A/2F,/2-]F,3/2- [F/2-F,/2]F/2-[F/2F,/2]x/2 [G3/2C,3/2-]C,/2 [^AF,-]F,/2x/2| 
[B3/2E,3/2-]E,/2 ^A[G/2-E,/2]G/2 E,-[FE,-] [G/2-E,/2]G/2-[G/2E,/2-]E,/2|
E,2 [B-G][B/2E,/2-]E,/2 [c3/2=A3/2F,3/2]x/2 [d-BG,-][d/2G,/2]x/2| 
[e2-c2-A,2-] [e/2c/2-A,/2]c/2A, [e/2c/2-E,/2-][c/2E,/2-][f-dE,-] [f/2E,/2]x/2[f-cE,]| 
[f/2F,/2-]F,/2-[c-BF,-] [c/2F,/2]x/2[c-A-C,] [c/2A/2-C,/2-][A/2C,/2]A, B,3/2x/2| 
[a2-e2-A,2-] [a/2e/2A,/2]x/2[e/2c/2A,/2-]A,/2 [e/2c/2E,/2-]E,/2-[fdE,-] E,[f-cE,]|
[f/2F,/2-]F,/2-[d3/2B3/2F,3/2]x/2[c-A-C,] [c/2A/2C,/2-]C,/2[d-BA,] [d/2B,/2-]B,/2[d-A-C,]| 
[d2-A2-D,2-] [d/2-A/2-D,/2][d/2-A/2-][d-A-D,] [dA-C,-][A3/2C,3/2]x/2C,| 
B,2 xB, [f/2d/2-A,/2-][d/2A,/2][e-c-C,] [e/2c/2D,/2]x/2[e-B-^D,]| 
[e2-B2-E,2] [e-B-][e/2B/2-E,/2-][B/2-E,/2] [B/2=D,/2-]D,2x/2D,|
C,2 [B-G][B/2C,/2-]C,/2 [c3/2A3/2B,3/2-]B,/2 [d-B][d/2B,/2]x/2| 
[e2-c2-A,2-] [e/2c/2-A,/2]c/2A, [e/2c/2-E,/2-][c/2E,/2-][f-dE,-] [f/2E,/2]x/2[f-cE,]| 
[f/2F,/2-]F,/2-[c-BF,-] [c/2F,/2]x/2[c-A-C,] [c/2A/2-C,/2-][A/2C,/2]A, B,3/2x/2| 
[a2-e2-A,2-] [a/2e/2A,/2]x/2[e/2c/2A,/2-]A,/2 [e/2c/2E,/2-]E,/2-[fdE,-] E,[f-cE,]|
[f/2F,/2-]F,/2-[d3/2B3/2F,3/2]x/2[c-A-C,] [c/2A/2C,/2-]C,/2[d-BA,] [d/2B,/2-]B,/2[d-A-C,]| 
[d2-A2-D,2-] [d/2-A/2-D,/2][d/2-A/2-][d-A-D,] [dA-C,-][A3/2C,3/2]x/2C,| 
B,2 x[fdB,] A,[e-c-G,] [e/2c/2A,/2]x/2[d-B-^A,]| 
[d2-B2-B,2-] [d/2-B/2-B,/2][d/2-B/2-][d/2B/2-B,/2-][B/2-B,/2] [B/2F,/2-]F,2x/2F,|
B,2- B,/2x/2[e-B-B,] [e/2B/2F,/2-]F,/2-[d-B-F,] [d/2B/2B,/2-]B,/2-[c/2-^A/2-B,/2][c/2-^A/2-]| 
[c-^A-F,-][c^AF,-F,] [B,F,]C, F,E,2F,-| 
F,4- [F,3/2-C,3/2]F,/2- [F,-^D,]F,| 
F,-[F,-F,] [B,/2F,/2]x/2C, F,E,2F,-|
F,4- [F,-C,]F,- [F,^D,]x| 
F,-[F,-F,] [g/2e/2B,/2-F,/2]B,/2[g/2-e/2C,/2-][g/2C,/2] [f^dF,]E,- [f^dE,][ecF,-]| 
F,-[ecF,-] F,-[ecF,-] [^dBF,-C,-][F,/2-C,/2]F,/2- [^dBF,-^D,]F,/2x/2| 
[c^AF-F,-][F-F,-] [^d/2-B/2-F/2-F,/2][^d/2-B/2F/2][^d/2c/2-^A/2-=A/2-][c/2^A/2=A/2] [GF,][BF-E,] F[^A-F-F,-]|
[^A2-F2-F,2-] [^A/2-F/2-F,/2][^A3/2-F3/2-] [^A-F-C,][^AF-] [F-^D,]F-| 
[F/2F,/2-]F,2-F,/2F,/2x/2 B,C,2x| 
B,2- [B,/2-B,/2]B,/2-[B,/2-B,/2]B,/2 [^D-F,-][F/2-^D/2F,/2-][FF,]x/2[B-F,]| 
[B/2B,/2-]B,/2-[^D3/2B,3/2-]B,/2-[^D/2-B,/2]^D/2- [^D/2F,/2-]F,/2-[F3/2F,3/2]x/2F,|
[B2B,2-] B,-[=A/2-B,/2]A/2- [A2-F,2-] [A/2-F,/2]A/2-[A-F,]| 
[A2B,2-] [B,-B,][B,/2C,/2]x/2 [F,-E,][F,-F,] [A,/2-F,/2]A,/2[B,-F,]| 
[B,2-E,2-] [e/2B,/2-E,/2-][B,/2-E,/2-][eB,-E,] [=d3/2B,3/2-F,3/2]B,/2- [dB,G,-][c/2-G,/2]c/2| 
A,-[c2-A,2-][c/2A,/2]x/2 [B3/2B,3/2]x/2 [AC,-]C,/2x/2|
[dD,-]D,- [dD,-][c/2-D,/2]c/2- [c/2C,/2]x/2[A/2C,/2-]C,/2- [B3/2-C,3/2]B/2-| 
[B2-B,2] B-[B/2-B,/2]B/2- [B2-F,2] B/2x/2F,/2x/2| 
B,2- B,/2x/2x B,A, F,E,| 
F,2- [c/2-F,/2]c/2-[c-F,] [c3/2C,3/2-]C,/2- [B/2-C,/2]B/2[^A/2-C,/2]^A/2-|
[^A/2F,/2-]F,3/2- [F/2-F,/2]F/2-[F/2F,/2]x/2 [G3/2C,3/2-]C,/2 [^AF,-]F,/2x/2| 
[B3/2E,3/2-]E,/2 ^A[G/2-E,/2]G/2 E,-[FE,-] [G/2-E,/2]G/2-[G/2E,/2-]E,/2| 
E,2 [B-G][B/2E,/2-]E,/2 [c3/2=A3/2F,3/2]x/2 [d-BG,-][d/2G,/2]x/2| 
[e2-c2-A,2-] [e/2c/2-A,/2]c/2A, [e/2c/2-E,/2-][c/2E,/2-][f-dE,-] [f/2E,/2]x/2[f-cE,]|
[f/2F,/2-]F,/2-[c-BF,-] [c/2F,/2]x/2[c-A-C,] [c/2A/2-C,/2-][A/2C,/2]A, B,3/2x/2| 
[a2-e2-A,2-] [a/2e/2A,/2]x/2[e/2c/2A,/2-]A,/2 [e/2c/2E,/2-]E,/2-[fdE,-] E,[f-cE,]| 
[f/2F,/2-]F,/2-[d3/2B3/2F,3/2]x/2[c-A-C,] [c/2A/2C,/2-]C,/2[d-BA,] [d/2B,/2-]B,/2[d-A-C,]| 
[d2-A2-D,2-] [d/2-A/2-D,/2][d/2-A/2-][d-A-D,] [dA-C,-][A3/2C,3/2]x/2C,|
B,2 xB, [f/2d/2-A,/2-][d/2A,/2][e-c-C,] [e/2c/2D,/2]x/2[e-B-^D,]| 
[e2-B2-E,2] [e-B-][e/2B/2-E,/2-][B/2-E,/2] [B/2=D,/2-]D,2x/2D,| 
C,2 [B-G][B/2C,/2-]C,/2 [c3/2A3/2B,3/2-]B,/2 [d-B][d/2B,/2]x/2| 
[e2-c2-A,2-] [e/2c/2-A,/2]c/2A, [e/2c/2-E,/2-][c/2E,/2-][f-dE,-] [f/2E,/2]x/2[f-cE,]|
[f/2F,/2-]F,/2-[c-BF,-] [c/2F,/2]x/2[c-A-C,] [c/2A/2-C,/2-][A/2C,/2]A, B,3/2x/2| 
[a2-e2-A,2-] [a/2e/2A,/2]x/2[e/2c/2A,/2-]A,/2 [e/2c/2E,/2-]E,/2-[fdE,-] E,[f-cE,]| 
[f/2F,/2-]F,/2-[d3/2B3/2F,3/2]x/2[c-A-C,] [c/2A/2C,/2-]C,/2[d-BA,] [d/2B,/2-]B,/2[d-A-C,]| 
[d2-A2-D,2-] [d/2-A/2-D,/2][d/2-A/2-][d-A-D,] [dA-C,-][A3/2C,3/2]x/2C,|
B,2 x[fdB,] A,[e-c-G,] [e/2c/2A,/2]x/2[d-B-^A,]| 
[d2-B2-B,2-] [d/2-B/2-B,/2][d/2-B/2-][d/2B/2-B,/2-][B/2-B,/2] [B/2F,/2-]F,2x/2F,| 
B,2- B,/2x/2B, F,2 B,3/2x/2| 
F,-[F,-F,] [B,F,]C, F,E,2F,-|
F,4- [F,3/2-C,3/2]F,/2- [F,-^D,]F,| 
F,-[F,-F,] [B,/2F,/2]x/2C, F,E,2F,-| 
F,4- [F,-C,]F,- [F,^D,]x| 
F,-[F,-F,] [g/2e/2B,/2-F,/2]B,/2[g/2-e/2C,/2-][g/2C,/2] [f^dF,]E,- [f^dE,][ecF,-]|
F,-[ecF,-] F,-[ecF,-] [^dBF,-C,-][F,/2-C,/2]F,/2- [^dBF,-^D,]F,/2x/2| 
[c^AF-F,-][F-F,-] [^d/2-B/2-F/2-F,/2][^d/2-B/2F/2][^d/2c/2-^A/2-=A/2-][c/2^A/2=A/2] [GF,][BF-E,] F[^A-F-F,-]| 
[^A2-F2-F,2-] [^A/2-F/2-F,/2][^A3/2-F3/2-] [^A-F-C,][^AF-] [F-^D,]F-| 
[F/2F,/2-]F,2-F,/2F,/2x/2 B,C,2x|
B,2- [B,/2-B,/2]B,/2-[B,/2-B,/2]B,/2 [^D-F,-][F/2-^D/2F,/2-][FF,]x/2[B-F,]| 
[B/2B,/2-]B,/2-[^D3/2B,3/2-]B,/2-[^D/2-B,/2]^D/2- [^D/2F,/2-]F,/2-[F3/2F,3/2]x/2F,| 
[B2B,2-] B,-[=A/2-B,/2]A/2- [A2-F,2-] [A/2-F,/2]A/2-[A-F,]| 
[A2B,2-] [B,-B,][B,/2C,/2]x/2 [F,-E,][F,-F,] [A,/2-F,/2]A,/2[B,-F,]|
[B,2-E,2-] [e/2B,/2-E,/2-][B,/2-E,/2-][eB,-E,] [=d3/2B,3/2-F,3/2]B,/2- [dB,G,-][c/2-G,/2]c/2| 
A,-[c2-A,2-][c/2A,/2]x/2 [B3/2B,3/2]x/2 [AC,-]C,/2x/2| 
[dD,-]D,- [dD,-][c/2-D,/2]c/2- [c/2C,/2]x/2[A/2C,/2-]C,/2- [B3/2-C,3/2]B/2-| 
[B2-B,2] B-[B/2-B,/2]B/2- [B2-F,2] B/2x/2F,/2x/2|
B,2- B,/2x/2x B,A, F,E,| 
F,2- [c/2-F,/2]c/2-[c-F,] [c3/2C,3/2-]C,/2- [B/2-C,/2]B/2[^A/2-C,/2]^A/2-| 
[^A/2F,/2-]F,3/2- [F/2-F,/2]F/2-[F/2F,/2]x/2 [G3/2C,3/2-]C,/2 [^AF,-]F,/2x/2| 
[B3/2E,3/2-]E,/2 ^A[G/2-E,/2]G/2 E,-[FE,-] [G/2-E,/2]G/2-[G/2E,/2-]E,/2|
E,2 [B-G][B/2E,/2-]E,/2 [c3/2=A3/2F,3/2]x/2 [d-BG,-][d/2G,/2]x/2| 
[e2-c2-A,2-] [e/2c/2-A,/2]c/2A, [e/2c/2-E,/2-][c/2E,/2-][f-dE,-] [f/2E,/2]x/2[f-cE,]| 
[f/2F,/2-]F,/2-[c-BF,-] [c/2F,/2]x/2[c-A-C,] [c/2A/2-C,/2-][A/2C,/2]A, B,3/2x/2| 
[a2-e2-A,2-] [a/2e/2A,/2]x/2[e/2c/2A,/2-]A,/2 [e/2c/2E,/2-]E,/2-[fdE,-] E,[f-cE,]|
[f/2F,/2-]F,/2-[d3/2B3/2F,3/2]x/2[c-A-C,] [c/2A/2C,/2-]C,/2[d-BA,] [d/2B,/2-]B,/2[d-A-C,]| 
[d2-A2-D,2-] [d/2-A/2-D,/2][d/2-A/2-][d-A-D,] [dA-C,-][A3/2C,3/2]x/2C,| 
B,2 xB, [f/2d/2-A,/2-][d/2A,/2][e-c-C,] [e/2c/2D,/2]x/2[e-B-^D,]| 
[e2-B2-E,2] [e-B-][e/2B/2-E,/2-][B/2-E,/2] [B/2=D,/2-]D,2x/2D,|
C,2 [B-G][B/2C,/2-]C,/2 [c3/2A3/2B,3/2-]B,/2 [d-B][d/2B,/2]x/2| 
[e2-c2-A,2-] [e/2c/2-A,/2]c/2A, [e/2c/2-E,/2-][c/2E,/2-][f-dE,-] [f/2E,/2]x/2[f-cE,]| 
[f/2F,/2-]F,/2-[c-BF,-] [c/2F,/2]x/2[c-A-C,] [c/2A/2-C,/2-][A/2C,/2]A, B,3/2x/2| 
[a2-e2-A,2-] [a/2e/2A,/2]x/2[e/2c/2A,/2-]A,/2 [e/2c/2E,/2-]E,/2-[fdE,-] E,[f-cE,]|
[f/2F,/2-]F,/2-[d3/2B3/2F,3/2]x/2[c-A-C,] [c/2A/2C,/2-]C,/2[d-BA,] [d/2B,/2-]B,/2[d-A-C,]| 
[d2-A2-D,2-] [d/2-A/2-D,/2][d/2-A/2-][d-A-D,] [dA-C,-][A3/2C,3/2]x/2C,| 
B,2 x[fdB,] A,[e-c-G,] [e/2c/2A,/2]x/2[d-B-^A,]| 
[d2-B2-B,2-] [d/2-B/2-B,/2][d/2-B/2-][d/2B/2-B,/2-][B/2-B,/2] [B/2F,/2-]F,2x/2F,|
B,2- B,/2x/2[e-B-B,] [e/2B/2F,/2-]F,/2-[d-B-F,] [d/2B/2B,/2-]B,/2-[c/2-^A/2-B,/2][c/2-^A/2-]| 
[c-^A-F,-][c^AF,-F,] [B,/2-F,/2]B,/2C, F,E,2F,-| 
F,4- [F,3/2-C,3/2]F,/2- [F,-^D,]F,/2x/2| 
F,-[F,-F,] [B,/2-F,/2]B,/2C, F,E,2F,-|
F,4- [F,-C,]F,- [F,-^D,]F,-| 
F,/2x/2F, B,C, F,E,2F,-| 
F,4- [F,3/2-C,3/2]F,/2- [F,-^D,]F,| 
F,-[F,-F,] [B,/2F,/2-]F,/2-[F,-C,] [F,-F,][F,2E,2]F,-|
F,4- [F,-C,]F,- [F,^D,]x| 
F,8-|F,8|
